1.423000000000000043e+01  1.000000000000000000e+00  1.709999999999999964e+00  2.430000000000000160e+00  1.559999999999999964e+01  1.270000000000000000e+02  2.799999999999999822e+00  3.060000000000000053e+00  2.800000000000000266e-01  2.290000000000000036e+00  5.639999999999999680e+00  1.040000000000000036e+00  3.919999999999999929e+00  0.000000000000000000e+00  1.065000000000000000e+03  1.000000000000000000e+00
1.319999999999999929e+01  0.000000000000000000e+00  1.780000000000000027e+00  2.140000000000000124e+00  1.119999999999999929e+01  1.000000000000000000e+02  2.649999999999999911e+00  2.759999999999999787e+00  2.600000000000000089e-01  1.280000000000000027e+00  4.379999999999999893e+00  1.050000000000000044e+00  3.399999999999999911e+00  1.000000000000000000e+00  1.050000000000000000e+03  1.000000000000000000e+00
1.316000000000000014e+01  1.000000000000000000e+00  2.359999999999999876e+00  2.669999999999999929e+00  1.860000000000000142e+01  1.010000000000000000e+02  2.799999999999999822e+00  3.240000000000000213e+00  2.999999999999999889e-01  2.810000000000000053e+00  5.679999999999999716e+00  1.030000000000000027e+00  3.169999999999999929e+00  1.000000000000000000e+00  1.185000000000000000e+03  1.000000000000000000e+00
1.436999999999999922e+01  1.000000000000000000e+00  1.949999999999999956e+00  2.500000000000000000e+00  1.680000000000000071e+01  1.130000000000000000e+02  3.850000000000000089e+00  3.490000000000000213e+00  2.399999999999999911e-01  2.180000000000000160e+00  7.799999999999999822e+00  8.599999999999999867e-01  3.450000000000000178e+00  1.000000000000000000e+00  1.480000000000000000e+03  1.000000000000000000e+00
1.324000000000000021e+01  1.000000000000000000e+00  2.589999999999999858e+00  2.870000000000000107e+00  2.100000000000000000e+01  1.180000000000000000e+02  2.799999999999999822e+00  2.689999999999999947e+00  3.900000000000000133e-01  1.820000000000000062e+00  4.320000000000000284e+00  1.040000000000000036e+00  2.930000000000000160e+00  1.000000000000000000e+00  7.350000000000000000e+02  1.000000000000000000e+00
1.419999999999999929e+01  1.000000000000000000e+00  1.760000000000000009e+00  2.450000000000000178e+00  1.519999999999999929e+01  1.120000000000000000e+02  3.270000000000000018e+00  3.390000000000000124e+00  3.400000000000000244e-01  1.969999999999999973e+00  6.750000000000000000e+00  1.050000000000000044e+00  2.850000000000000089e+00  0.000000000000000000e+00  1.450000000000000000e+03  1.000000000000000000e+00
1.439000000000000057e+01  1.000000000000000000e+00  1.870000000000000107e+00  2.450000000000000178e+00  1.459999999999999964e+01  9.600000000000000000e+01  2.500000000000000000e+00  2.520000000000000018e+00  2.999999999999999889e-01  1.979999999999999982e+00  5.250000000000000000e+00  1.020000000000000018e+00  3.580000000000000071e+00  0.000000000000000000e+00  1.290000000000000000e+03  1.000000000000000000e+00
1.406000000000000050e+01  0.000000000000000000e+00  2.149999999999999911e+00  2.609999999999999876e+00  1.760000000000000142e+01  1.210000000000000000e+02  2.600000000000000089e+00  2.509999999999999787e+00  3.099999999999999978e-01  1.250000000000000000e+00  5.049999999999999822e+00  1.060000000000000053e+00  3.580000000000000071e+00  0.000000000000000000e+00  1.295000000000000000e+03  1.000000000000000000e+00
1.483000000000000007e+01  0.000000000000000000e+00  1.639999999999999902e+00  2.169999999999999929e+00  1.400000000000000000e+01  9.700000000000000000e+01  2.799999999999999822e+00  2.979999999999999982e+00  2.899999999999999800e-01  1.979999999999999982e+00  5.200000000000000178e+00  1.080000000000000071e+00  2.850000000000000089e+00  0.000000000000000000e+00  1.045000000000000000e+03  1.000000000000000000e+00
1.385999999999999943e+01  1.000000000000000000e+00  1.350000000000000089e+00  2.270000000000000018e+00  1.600000000000000000e+01  9.800000000000000000e+01  2.979999999999999982e+00  3.149999999999999911e+00  2.200000000000000011e-01  1.850000000000000089e+00  7.219999999999999751e+00  1.010000000000000009e+00  3.549999999999999822e+00  0.000000000000000000e+00  1.050000000000000000e+02  1.000000000000000000e+00
1.409999999999999964e+01  0.000000000000000000e+00  2.160000000000000142e+00  2.299999999999999822e+00  1.800000000000000000e+01  1.050000000000000000e+02  2.950000000000000178e+00  3.319999999999999840e+00  2.200000000000000011e-01  2.379999999999999893e+00  5.750000000000000000e+00  1.250000000000000000e+00  3.169999999999999929e+00  0.000000000000000000e+00  1.510000000000000000e+03  1.000000000000000000e+00
1.411999999999999922e+01  1.000000000000000000e+00  1.479999999999999982e+00  2.319999999999999840e+00  1.680000000000000071e+01  9.500000000000000000e+01  2.200000000000000178e+00  2.430000000000000160e+00  2.600000000000000089e-01  1.570000000000000062e+00  5.000000000000000000e+00  1.169999999999999929e+00  2.819999999999999840e+00  1.000000000000000000e+00  1.280000000000000000e+03  1.000000000000000000e+00
1.375000000000000000e+01  0.000000000000000000e+00  1.729999999999999982e+00  2.410000000000000142e+00  1.600000000000000000e+01  8.900000000000000000e+01  2.600000000000000089e+00  2.759999999999999787e+00  2.899999999999999800e-01  1.810000000000000053e+00  5.599999999999999645e+00  1.149999999999999911e+00  2.899999999999999911e+00  0.000000000000000000e+00  1.320000000000000000e+03  1.000000000000000000e+00
1.475000000000000000e+01  1.000000000000000000e+00  1.729999999999999982e+00  2.390000000000000124e+00  1.140000000000000036e+01  9.100000000000000000e+01  3.100000000000000089e+00  3.689999999999999947e+00  4.299999999999999933e-01  2.810000000000000053e+00  5.400000000000000355e+00  1.250000000000000000e+00  2.729999999999999982e+00  1.000000000000000000e+00  1.150000000000000000e+03  1.000000000000000000e+00
1.438000000000000078e+01  0.000000000000000000e+00  1.870000000000000107e+00  2.379999999999999893e+00  1.200000000000000000e+01  1.020000000000000000e+02  3.299999999999999822e+00  3.640000000000000124e+00  2.899999999999999800e-01  2.959999999999999964e+00  7.500000000000000000e+00  1.199999999999999956e+00  3.000000000000000000e+00  0.000000000000000000e+00  1.547000000000000000e+03  1.000000000000000000e+00
1.363000000000000078e+01  1.000000000000000000e+00  1.810000000000000053e+00  2.700000000000000178e+00  1.719999999999999929e+01  1.120000000000000000e+02  2.850000000000000089e+00  2.910000000000000142e+00  2.999999999999999889e-01  1.459999999999999964e+00  7.299999999999999822e+00  1.280000000000000027e+00  2.879999999999999893e+00  1.000000000000000000e+00  1.310000000000000000e+03  1.000000000000000000e+00
1.430000000000000071e+01  1.000000000000000000e+00  1.919999999999999929e+00  2.720000000000000195e+00  2.000000000000000000e+01  1.200000000000000000e+02  2.799999999999999822e+00  3.140000000000000124e+00  3.300000000000000155e-01  1.969999999999999973e+00  6.200000000000000178e+00  1.070000000000000062e+00  2.649999999999999911e+00  0.000000000000000000e+00  1.280000000000000000e+03  1.000000000000000000e+00
1.383000000000000007e+01  1.000000000000000000e+00  1.570000000000000062e+00  2.620000000000000107e+00  2.000000000000000000e+01  1.150000000000000000e+02  2.950000000000000178e+00  3.399999999999999911e+00  4.000000000000000222e-01  1.719999999999999973e+00  6.599999999999999645e+00  1.129999999999999893e+00  2.569999999999999840e+00  1.000000000000000000e+00  1.130000000000000000e+03  1.000000000000000000e+00
1.418999999999999950e+01  1.000000000000000000e+00  1.590000000000000080e+00  2.479999999999999982e+00  1.650000000000000000e+01  1.080000000000000000e+02  3.299999999999999822e+00  3.930000000000000160e+00  3.200000000000000067e-01  1.860000000000000098e+00  8.699999999999999289e+00  1.229999999999999982e+00  2.819999999999999840e+00  0.000000000000000000e+00  1.680000000000000000e+03  1.000000000000000000e+00
1.364000000000000057e+01  1.000000000000000000e+00  3.100000000000000089e+00  2.560000000000000053e+00  1.519999999999999929e+01  1.160000000000000000e+02  2.700000000000000178e+00  3.029999999999999805e+00  1.700000000000000122e-01  1.659999999999999920e+00  5.099999999999999645e+00  9.599999999999999645e-01  3.359999999999999876e+00  1.000000000000000000e+00  8.450000000000000000e+02  1.000000000000000000e+00
1.406000000000000050e+01  1.000000000000000000e+00  1.629999999999999893e+00  2.279999999999999805e+00  1.600000000000000000e+01  1.260000000000000000e+02  3.000000000000000000e+00  3.169999999999999929e+00  2.399999999999999911e-01  2.100000000000000089e+00  5.650000000000000355e+00  1.090000000000000080e+00  3.709999999999999964e+00  1.000000000000000000e+00  7.800000000000000000e+02  1.000000000000000000e+00
1.292999999999999972e+01  0.000000000000000000e+00  3.799999999999999822e+00  2.649999999999999911e+00  1.860000000000000142e+01  1.020000000000000000e+02  2.410000000000000142e+00  2.410000000000000142e+00  2.500000000000000000e-01  1.979999999999999982e+00  4.500000000000000000e+00  1.030000000000000027e+00  3.520000000000000018e+00  1.000000000000000000e+00  7.700000000000000000e+02  1.000000000000000000e+00
1.371000000000000085e+01  0.000000000000000000e+00  1.860000000000000098e+00  2.359999999999999876e+00  1.660000000000000142e+01  1.010000000000000000e+02  2.609999999999999876e+00  2.879999999999999893e+00  2.700000000000000178e-01  1.689999999999999947e+00  3.799999999999999822e+00  1.110000000000000098e+00  4.000000000000000000e+00  1.000000000000000000e+00  1.035000000000000000e+03  1.000000000000000000e+00
1.284999999999999964e+01  0.000000000000000000e+00  1.600000000000000089e+00  2.520000000000000018e+00  1.780000000000000071e+01  9.500000000000000000e+01  2.479999999999999982e+00  2.370000000000000107e+00  2.600000000000000089e-01  1.459999999999999964e+00  3.930000000000000160e+00  1.090000000000000080e+00  3.629999999999999893e+00  0.000000000000000000e+00  1.015000000000000000e+03  1.000000000000000000e+00
1.350000000000000000e+01  0.000000000000000000e+00  1.810000000000000053e+00  2.609999999999999876e+00  2.000000000000000000e+01  9.600000000000000000e+01  2.529999999999999805e+00  2.609999999999999876e+00  2.800000000000000266e-01  1.659999999999999920e+00  3.520000000000000018e+00  1.120000000000000107e+00  3.819999999999999840e+00  1.000000000000000000e+00  8.450000000000000000e+02  1.000000000000000000e+00
1.305000000000000071e+01  0.000000000000000000e+00  2.049999999999999822e+00  3.220000000000000195e+00  2.500000000000000000e+01  1.240000000000000000e+02  2.629999999999999893e+00  2.680000000000000160e+00  4.699999999999999734e-01  1.919999999999999929e+00  3.580000000000000071e+00  1.129999999999999893e+00  3.200000000000000178e+00  0.000000000000000000e+00  8.300000000000000000e+02  1.000000000000000000e+00
1.339000000000000057e+01  1.000000000000000000e+00  1.770000000000000018e+00  2.620000000000000107e+00  1.610000000000000142e+01  9.300000000000000000e+01  2.850000000000000089e+00  2.939999999999999947e+00  3.400000000000000244e-01  1.449999999999999956e+00  4.799999999999999822e+00  9.200000000000000400e-01  3.220000000000000195e+00  1.000000000000000000e+00  1.195000000000000000e+03  1.000000000000000000e+00
1.330000000000000071e+01  0.000000000000000000e+00  1.719999999999999973e+00  2.140000000000000124e+00  1.700000000000000000e+01  9.400000000000000000e+01  2.399999999999999911e+00  2.189999999999999947e+00  2.700000000000000178e-01  1.350000000000000089e+00  3.950000000000000178e+00  1.020000000000000018e+00  2.770000000000000018e+00  0.000000000000000000e+00  1.285000000000000000e+03  1.000000000000000000e+00
1.386999999999999922e+01  1.000000000000000000e+00  1.899999999999999911e+00  2.799999999999999822e+00  1.939999999999999858e+01  1.070000000000000000e+02  2.950000000000000178e+00  2.970000000000000195e+00  3.699999999999999956e-01  1.760000000000000009e+00  4.500000000000000000e+00  1.250000000000000000e+00  3.399999999999999911e+00  0.000000000000000000e+00  9.150000000000000000e+02  1.000000000000000000e+00
1.401999999999999957e+01  1.000000000000000000e+00  1.679999999999999938e+00  2.209999999999999964e+00  1.600000000000000000e+01  9.600000000000000000e+01  2.649999999999999911e+00  2.330000000000000071e+00  2.600000000000000089e-01  1.979999999999999982e+00  4.700000000000000178e+00  1.040000000000000036e+00  3.589999999999999858e+00  0.000000000000000000e+00  1.035000000000000000e+03  1.000000000000000000e+00
1.373000000000000043e+01  1.000000000000000000e+00  1.500000000000000000e+00  2.700000000000000178e+00  2.250000000000000000e+01  1.010000000000000000e+02  3.000000000000000000e+00  3.250000000000000000e+00  2.899999999999999800e-01  2.379999999999999893e+00  5.700000000000000178e+00  1.189999999999999947e+00  2.709999999999999964e+00  1.000000000000000000e+00  1.285000000000000000e+03  1.000000000000000000e+00
1.358000000000000007e+01  1.000000000000000000e+00  1.659999999999999920e+00  2.359999999999999876e+00  1.910000000000000142e+01  1.060000000000000000e+02  2.859999999999999876e+00  3.189999999999999947e+00  2.200000000000000011e-01  1.949999999999999956e+00  6.900000000000000355e+00  1.090000000000000080e+00  2.879999999999999893e+00  1.000000000000000000e+00  1.515000000000000000e+03  1.000000000000000000e+00
1.367999999999999972e+01  1.000000000000000000e+00  1.830000000000000071e+00  2.359999999999999876e+00  1.719999999999999929e+01  1.040000000000000000e+02  2.419999999999999929e+00  2.689999999999999947e+00  4.199999999999999845e-01  1.969999999999999973e+00  3.839999999999999858e+00  1.229999999999999982e+00  2.870000000000000107e+00  0.000000000000000000e+00  9.900000000000000000e+02  1.000000000000000000e+00
1.375999999999999979e+01  1.000000000000000000e+00  1.530000000000000027e+00  2.700000000000000178e+00  1.950000000000000000e+01  1.320000000000000000e+02  2.950000000000000178e+00  2.740000000000000213e+00  5.000000000000000000e-01  1.350000000000000089e+00  5.400000000000000355e+00  1.250000000000000000e+00  3.000000000000000000e+00  1.000000000000000000e+00  1.235000000000000000e+03  1.000000000000000000e+00
1.350999999999999979e+01  1.000000000000000000e+00  1.800000000000000044e+00  2.649999999999999911e+00  1.900000000000000000e+01  1.100000000000000000e+02  2.350000000000000089e+00  2.529999999999999805e+00  2.899999999999999800e-01  1.540000000000000036e+00  4.200000000000000178e+00  1.100000000000000089e+00  2.870000000000000107e+00  1.000000000000000000e+00  1.095000000000000000e+03  1.000000000000000000e+00
1.348000000000000043e+01  1.000000000000000000e+00  1.810000000000000053e+00  2.410000000000000142e+00  2.050000000000000000e+01  1.000000000000000000e+02  2.700000000000000178e+00  2.979999999999999982e+00  2.600000000000000089e-01  1.860000000000000098e+00  5.099999999999999645e+00  1.040000000000000036e+00  3.470000000000000195e+00  1.000000000000000000e+00  9.200000000000000000e+02  1.000000000000000000e+00
1.327999999999999936e+01  0.000000000000000000e+00  1.639999999999999902e+00  2.839999999999999858e+00  1.550000000000000000e+01  1.100000000000000000e+02  2.600000000000000089e+00  2.680000000000000160e+00  3.400000000000000244e-01  1.360000000000000098e+00  4.599999999999999645e+00  1.090000000000000080e+00  2.779999999999999805e+00  1.000000000000000000e+00  8.800000000000000000e+02  1.000000000000000000e+00
1.305000000000000071e+01  0.000000000000000000e+00  1.649999999999999911e+00  2.549999999999999822e+00  1.800000000000000000e+01  9.800000000000000000e+01  2.450000000000000178e+00  2.430000000000000160e+00  2.899999999999999800e-01  1.439999999999999947e+00  4.250000000000000000e+00  1.120000000000000107e+00  2.509999999999999787e+00  0.000000000000000000e+00  1.105000000000000000e+03  1.000000000000000000e+00
1.307000000000000028e+01  1.000000000000000000e+00  1.500000000000000000e+00  2.100000000000000089e+00  1.550000000000000000e+01  9.800000000000000000e+01  2.399999999999999911e+00  2.640000000000000124e+00  2.800000000000000266e-01  1.370000000000000107e+00  3.700000000000000178e+00  1.179999999999999938e+00  2.689999999999999947e+00  0.000000000000000000e+00  1.020000000000000000e+03  1.000000000000000000e+00
1.422000000000000064e+01  0.000000000000000000e+00  3.990000000000000213e+00  2.509999999999999787e+00  1.319999999999999929e+01  1.280000000000000000e+02  3.000000000000000000e+00  3.040000000000000036e+00  2.000000000000000111e-01  2.080000000000000071e+00  5.099999999999999645e+00  8.900000000000000133e-01  3.529999999999999805e+00  0.000000000000000000e+00  7.600000000000000000e+02  1.000000000000000000e+00
1.356000000000000050e+01  1.000000000000000000e+00  1.709999999999999964e+00  2.310000000000000053e+00  1.619999999999999929e+01  1.170000000000000000e+02  3.149999999999999911e+00  3.290000000000000036e+00  3.400000000000000244e-01  2.339999999999999858e+00  6.129999999999999893e+00  9.499999999999999556e-01  3.379999999999999893e+00  0.000000000000000000e+00  7.950000000000000000e+02  1.000000000000000000e+00
1.341000000000000014e+01  1.000000000000000000e+00  3.839999999999999858e+00  2.120000000000000107e+00  1.880000000000000071e+01  9.000000000000000000e+01  2.450000000000000178e+00  2.680000000000000160e+00  2.700000000000000178e-01  1.479999999999999982e+00  4.280000000000000249e+00  9.100000000000000311e-01  3.000000000000000000e+00  0.000000000000000000e+00  1.035000000000000000e+03  1.000000000000000000e+00
1.388000000000000078e+01  1.000000000000000000e+00  1.889999999999999902e+00  2.589999999999999858e+00  1.500000000000000000e+01  1.010000000000000000e+02  3.250000000000000000e+00  3.560000000000000053e+00  1.700000000000000122e-01  1.699999999999999956e+00  5.429999999999999716e+00  8.800000000000000044e-01  3.560000000000000053e+00  0.000000000000000000e+00  1.095000000000000000e+03  1.000000000000000000e+00
1.324000000000000021e+01  1.000000000000000000e+00  3.979999999999999982e+00  2.290000000000000036e+00  1.750000000000000000e+01  1.030000000000000000e+02  2.640000000000000124e+00  2.629999999999999893e+00  3.200000000000000067e-01  1.659999999999999920e+00  4.360000000000000320e+00  8.199999999999999512e-01  3.000000000000000000e+00  1.000000000000000000e+00  6.800000000000000000e+02  1.000000000000000000e+00
1.305000000000000071e+01  1.000000000000000000e+00  1.770000000000000018e+00  2.100000000000000089e+00  1.700000000000000000e+01  1.070000000000000000e+02  3.000000000000000000e+00  3.000000000000000000e+00  2.800000000000000266e-01  2.029999999999999805e+00  5.040000000000000036e+00  8.800000000000000044e-01  3.350000000000000089e+00  0.000000000000000000e+00  8.850000000000000000e+02  1.000000000000000000e+00
1.421000000000000085e+01  0.000000000000000000e+00  4.040000000000000036e+00  2.439999999999999947e+00  1.889999999999999858e+01  1.110000000000000000e+02  2.850000000000000089e+00  2.649999999999999911e+00  2.999999999999999889e-01  1.250000000000000000e+00  5.240000000000000213e+00  8.699999999999999956e-01  3.330000000000000071e+00  1.000000000000000000e+00  1.080000000000000000e+03  1.000000000000000000e+00
1.438000000000000078e+01  0.000000000000000000e+00  3.589999999999999858e+00  2.279999999999999805e+00  1.600000000000000000e+01  1.020000000000000000e+02  3.250000000000000000e+00  3.169999999999999929e+00  2.700000000000000178e-01  2.189999999999999947e+00  4.900000000000000355e+00  1.040000000000000036e+00  3.439999999999999947e+00  0.000000000000000000e+00  1.065000000000000000e+03  1.000000000000000000e+00
1.390000000000000036e+01  1.000000000000000000e+00  1.679999999999999938e+00  2.120000000000000107e+00  1.600000000000000000e+01  1.010000000000000000e+02  3.100000000000000089e+00  3.390000000000000124e+00  2.099999999999999922e-01  2.140000000000000124e+00  6.099999999999999645e+00  9.100000000000000311e-01  3.330000000000000071e+00  1.000000000000000000e+00  9.850000000000000000e+02  1.000000000000000000e+00
1.409999999999999964e+01  0.000000000000000000e+00  2.020000000000000018e+00  2.399999999999999911e+00  1.880000000000000071e+01  1.030000000000000000e+02  2.750000000000000000e+00  2.919999999999999929e+00  3.200000000000000067e-01  2.379999999999999893e+00  6.200000000000000178e+00  1.070000000000000062e+00  2.750000000000000000e+00  0.000000000000000000e+00  1.060000000000000000e+03  1.000000000000000000e+00
1.393999999999999950e+01  1.000000000000000000e+00  1.729999999999999982e+00  2.270000000000000018e+00  1.739999999999999858e+01  1.080000000000000000e+02  2.879999999999999893e+00  3.540000000000000036e+00  3.200000000000000067e-01  2.080000000000000071e+00  8.900000000000000355e+00  1.120000000000000107e+00  3.100000000000000089e+00  1.000000000000000000e+00  1.260000000000000000e+03  1.000000000000000000e+00
1.305000000000000071e+01  0.000000000000000000e+00  1.729999999999999982e+00  2.040000000000000036e+00  1.240000000000000036e+01  9.200000000000000000e+01  2.720000000000000195e+00  3.270000000000000018e+00  1.700000000000000122e-01  2.910000000000000142e+00  7.200000000000000178e+00  1.120000000000000107e+00  2.910000000000000142e+00  0.000000000000000000e+00  1.150000000000000000e+03  1.000000000000000000e+00
1.383000000000000007e+01  1.000000000000000000e+00  1.649999999999999911e+00  2.600000000000000089e+00  1.719999999999999929e+01  9.400000000000000000e+01  2.450000000000000178e+00  2.990000000000000213e+00  2.200000000000000011e-01  2.290000000000000036e+00  5.599999999999999645e+00  1.239999999999999991e+00  3.370000000000000107e+00  1.000000000000000000e+00  1.265000000000000000e+03  1.000000000000000000e+00
1.382000000000000028e+01  0.000000000000000000e+00  1.750000000000000000e+00  2.419999999999999929e+00  1.400000000000000000e+01  1.110000000000000000e+02  3.879999999999999893e+00  3.740000000000000213e+00  3.200000000000000067e-01  1.870000000000000107e+00  7.049999999999999822e+00  1.010000000000000009e+00  3.259999999999999787e+00  1.000000000000000000e+00  1.190000000000000000e+03  1.000000000000000000e+00
1.376999999999999957e+01  1.000000000000000000e+00  1.899999999999999911e+00  2.680000000000000160e+00  1.710000000000000142e+01  1.150000000000000000e+02  3.000000000000000000e+00  2.790000000000000036e+00  3.900000000000000133e-01  1.679999999999999938e+00  6.299999999999999822e+00  1.129999999999999893e+00  2.930000000000000160e+00  1.000000000000000000e+00  1.375000000000000000e+03  1.000000000000000000e+00
1.374000000000000021e+01  1.000000000000000000e+00  1.669999999999999929e+00  2.250000000000000000e+00  1.639999999999999858e+01  1.180000000000000000e+02  2.600000000000000089e+00  2.899999999999999911e+00  2.099999999999999922e-01  1.620000000000000107e+00  5.849999999999999645e+00  9.200000000000000400e-01  3.200000000000000178e+00  1.000000000000000000e+00  1.060000000000000000e+03  1.000000000000000000e+00
1.356000000000000050e+01  1.000000000000000000e+00  1.729999999999999982e+00  2.459999999999999964e+00  2.050000000000000000e+01  1.160000000000000000e+02  2.959999999999999964e+00  2.779999999999999805e+00  2.000000000000000111e-01  2.450000000000000178e+00  6.250000000000000000e+00  9.799999999999999822e-01  3.029999999999999805e+00  0.000000000000000000e+00  1.120000000000000000e+03  1.000000000000000000e+00
1.422000000000000064e+01  1.000000000000000000e+00  1.699999999999999956e+00  2.299999999999999822e+00  1.630000000000000071e+01  1.180000000000000000e+02  3.200000000000000178e+00  3.000000000000000000e+00  2.600000000000000089e-01  2.029999999999999805e+00  6.379999999999999893e+00  9.399999999999999467e-01  3.310000000000000053e+00  1.000000000000000000e+00  9.700000000000000000e+02  1.000000000000000000e+00
1.328999999999999915e+01  1.000000000000000000e+00  1.969999999999999973e+00  2.680000000000000160e+00  1.680000000000000071e+01  1.020000000000000000e+02  3.000000000000000000e+00  3.229999999999999982e+00  3.099999999999999978e-01  1.659999999999999920e+00  6.000000000000000000e+00  1.070000000000000062e+00  2.839999999999999858e+00  0.000000000000000000e+00  1.270000000000000000e+03  1.000000000000000000e+00
1.372000000000000064e+01  1.000000000000000000e+00  1.429999999999999938e+00  2.500000000000000000e+00  1.669999999999999929e+01  1.080000000000000000e+02  3.399999999999999911e+00  3.669999999999999929e+00  1.900000000000000022e-01  2.040000000000000036e+00  6.799999999999999822e+00  8.900000000000000133e-01  2.870000000000000107e+00  1.000000000000000000e+00  1.285000000000000000e+03  1.000000000000000000e+00
1.236999999999999922e+01  0.000000000000000000e+00  9.399999999999999467e-01  1.360000000000000098e+00  1.059999999999999964e+01  8.800000000000000000e+01  1.979999999999999982e+00  5.699999999999999512e-01  2.800000000000000266e-01  4.199999999999999845e-01  1.949999999999999956e+00  1.050000000000000044e+00  1.820000000000000062e+00  0.000000000000000000e+00  5.200000000000000000e+02  2.000000000000000000e+00
1.233000000000000007e+01  0.000000000000000000e+00  1.100000000000000089e+00  2.279999999999999805e+00  1.600000000000000000e+01  1.010000000000000000e+02  2.049999999999999822e+00  1.090000000000000080e+00  6.300000000000000044e-01  4.099999999999999756e-01  3.270000000000000018e+00  1.250000000000000000e+00  1.669999999999999929e+00  0.000000000000000000e+00  6.800000000000000000e+02  2.000000000000000000e+00
1.264000000000000057e+01  0.000000000000000000e+00  1.360000000000000098e+00  2.020000000000000018e+00  1.680000000000000071e+01  1.000000000000000000e+02  2.020000000000000018e+00  1.409999999999999920e+00  5.300000000000000266e-01  6.199999999999999956e-01  5.750000000000000000e+00  9.799999999999999822e-01  1.590000000000000080e+00  0.000000000000000000e+00  4.500000000000000000e+02  2.000000000000000000e+00
1.366999999999999993e+01  0.000000000000000000e+00  1.250000000000000000e+00  1.919999999999999929e+00  1.800000000000000000e+01  9.400000000000000000e+01  2.100000000000000089e+00  1.790000000000000036e+00  3.200000000000000067e-01  7.299999999999999822e-01  3.799999999999999822e+00  1.229999999999999982e+00  2.459999999999999964e+00  1.000000000000000000e+00  6.300000000000000000e+02  2.000000000000000000e+00
1.236999999999999922e+01  0.000000000000000000e+00  1.129999999999999893e+00  2.160000000000000142e+00  1.900000000000000000e+01  8.700000000000000000e+01  3.500000000000000000e+00  3.100000000000000089e+00  1.900000000000000022e-01  1.870000000000000107e+00  4.450000000000000178e+00  1.219999999999999973e+00  2.870000000000000107e+00  1.000000000000000000e+00  4.200000000000000000e+02  2.000000000000000000e+00
1.216999999999999993e+01  1.000000000000000000e+00  1.449999999999999956e+00  2.529999999999999805e+00  1.900000000000000000e+01  1.040000000000000000e+02  1.889999999999999902e+00  1.750000000000000000e+00  4.500000000000000111e-01  1.030000000000000027e+00  2.950000000000000178e+00  1.449999999999999956e+00  2.229999999999999982e+00  1.000000000000000000e+00  3.550000000000000000e+02  2.000000000000000000e+00
1.236999999999999922e+01  0.000000000000000000e+00  1.209999999999999964e+00  2.560000000000000053e+00  1.810000000000000142e+01  9.800000000000000000e+01  2.419999999999999929e+00  2.649999999999999911e+00  3.699999999999999956e-01  2.080000000000000071e+00  4.599999999999999645e+00  1.189999999999999947e+00  2.299999999999999822e+00  0.000000000000000000e+00  6.780000000000000000e+02  2.000000000000000000e+00
1.310999999999999943e+01  1.000000000000000000e+00  1.010000000000000009e+00  1.699999999999999956e+00  1.500000000000000000e+01  7.800000000000000000e+01  2.979999999999999982e+00  3.180000000000000160e+00  2.600000000000000089e-01  2.279999999999999805e+00  5.299999999999999822e+00  1.120000000000000107e+00  3.180000000000000160e+00  1.000000000000000000e+00  5.020000000000000000e+02  2.000000000000000000e+00
1.236999999999999922e+01  1.000000000000000000e+00  1.169999999999999929e+00  1.919999999999999929e+00  1.960000000000000142e+01  7.800000000000000000e+01  2.109999999999999876e+00  2.000000000000000000e+00  2.700000000000000178e-01  1.040000000000000036e+00  4.679999999999999716e+00  1.120000000000000107e+00  3.479999999999999982e+00  1.000000000000000000e+00  5.100000000000000000e+02  2.000000000000000000e+00
1.333999999999999986e+01  1.000000000000000000e+00  9.399999999999999467e-01  2.359999999999999876e+00  1.700000000000000000e+01  1.100000000000000000e+02  2.529999999999999805e+00  1.300000000000000044e+00  5.500000000000000444e-01  4.199999999999999845e-01  3.169999999999999929e+00  1.020000000000000018e+00  1.929999999999999938e+00  1.000000000000000000e+00  7.500000000000000000e+02  2.000000000000000000e+00
1.221000000000000085e+01  1.000000000000000000e+00  1.189999999999999947e+00  1.750000000000000000e+00  1.680000000000000071e+01  1.510000000000000000e+02  1.850000000000000089e+00  1.280000000000000027e+00  1.400000000000000133e-01  2.500000000000000000e+00  2.850000000000000089e+00  1.280000000000000027e+00  3.069999999999999840e+00  1.000000000000000000e+00  7.180000000000000000e+02  2.000000000000000000e+00
1.228999999999999915e+01  1.000000000000000000e+00  1.610000000000000098e+00  2.209999999999999964e+00  2.039999999999999858e+01  1.030000000000000000e+02  1.100000000000000089e+00  1.020000000000000018e+00  3.699999999999999956e-01  1.459999999999999964e+00  3.049999999999999822e+00  9.060000000000000275e-01  1.820000000000000062e+00  0.000000000000000000e+00  8.700000000000000000e+02  2.000000000000000000e+00
1.385999999999999943e+01  1.000000000000000000e+00  1.510000000000000009e+00  2.669999999999999929e+00  2.500000000000000000e+01  8.600000000000000000e+01  2.950000000000000178e+00  2.859999999999999876e+00  2.099999999999999922e-01  1.870000000000000107e+00  3.379999999999999893e+00  1.360000000000000098e+00  3.160000000000000142e+00  1.000000000000000000e+00  4.100000000000000000e+02  2.000000000000000000e+00
1.349000000000000021e+01  1.000000000000000000e+00  1.659999999999999920e+00  2.240000000000000213e+00  2.400000000000000000e+01  8.700000000000000000e+01  1.879999999999999893e+00  1.840000000000000080e+00  2.700000000000000178e-01  1.030000000000000027e+00  3.740000000000000213e+00  9.799999999999999822e-01  2.779999999999999805e+00  0.000000000000000000e+00  4.720000000000000000e+02  2.000000000000000000e+00
1.299000000000000021e+01  1.000000000000000000e+00  1.669999999999999929e+00  2.600000000000000089e+00  3.000000000000000000e+01  1.390000000000000000e+02  3.299999999999999822e+00  2.890000000000000124e+00  2.099999999999999922e-01  1.959999999999999964e+00  3.350000000000000089e+00  1.310000000000000053e+00  3.500000000000000000e+00  1.000000000000000000e+00  9.850000000000000000e+02  2.000000000000000000e+00
1.196000000000000085e+01  0.000000000000000000e+00  1.090000000000000080e+00  2.299999999999999822e+00  2.100000000000000000e+01  1.010000000000000000e+02  3.379999999999999893e+00  2.140000000000000124e+00  1.300000000000000044e-01  1.649999999999999911e+00  3.209999999999999964e+00  9.899999999999999911e-01  3.129999999999999893e+00  0.000000000000000000e+00  8.860000000000000000e+02  2.000000000000000000e+00
1.166000000000000014e+01  0.000000000000000000e+00  1.879999999999999893e+00  1.919999999999999929e+00  1.600000000000000000e+01  9.700000000000000000e+01  1.610000000000000098e+00  1.570000000000000062e+00  3.400000000000000244e-01  1.149999999999999911e+00  3.799999999999999822e+00  1.229999999999999982e+00  2.140000000000000124e+00  0.000000000000000000e+00  4.280000000000000000e+02  2.000000000000000000e+00
1.302999999999999936e+01  1.000000000000000000e+00  9.000000000000000222e-01  1.709999999999999964e+00  1.600000000000000000e+01  8.600000000000000000e+01  1.949999999999999956e+00  2.029999999999999805e+00  2.399999999999999911e-01  1.459999999999999964e+00  4.599999999999999645e+00  1.189999999999999947e+00  2.479999999999999982e+00  0.000000000000000000e+00  3.920000000000000000e+02  2.000000000000000000e+00
1.183999999999999986e+01  0.000000000000000000e+00  2.890000000000000124e+00  2.229999999999999982e+00  1.800000000000000000e+01  1.120000000000000000e+02  1.719999999999999973e+00  1.320000000000000062e+00  4.299999999999999933e-01  9.499999999999999556e-01  2.649999999999999911e+00  9.599999999999999645e-01  2.520000000000000018e+00  1.000000000000000000e+00  5.000000000000000000e+02  2.000000000000000000e+00
1.233000000000000007e+01  1.000000000000000000e+00  9.899999999999999911e-01  1.949999999999999956e+00  1.480000000000000071e+01  1.360000000000000000e+02  1.899999999999999911e+00  1.850000000000000089e+00  3.499999999999999778e-01  2.759999999999999787e+00  3.399999999999999911e+00  1.060000000000000053e+00  2.310000000000000053e+00  1.000000000000000000e+00  7.500000000000000000e+02  2.000000000000000000e+00
1.269999999999999929e+01  1.000000000000000000e+00  3.870000000000000107e+00  2.399999999999999911e+00  2.300000000000000000e+01  1.010000000000000000e+02  2.830000000000000071e+00  2.549999999999999822e+00  4.299999999999999933e-01  1.949999999999999956e+00  2.569999999999999840e+00  1.189999999999999947e+00  3.129999999999999893e+00  0.000000000000000000e+00  4.630000000000000000e+02  2.000000000000000000e+00
1.200000000000000000e+01  1.000000000000000000e+00  9.200000000000000400e-01  2.000000000000000000e+00  1.900000000000000000e+01  8.600000000000000000e+01  2.419999999999999929e+00  2.259999999999999787e+00  2.999999999999999889e-01  1.429999999999999938e+00  2.500000000000000000e+00  1.379999999999999893e+00  3.120000000000000107e+00  1.000000000000000000e+00  2.780000000000000000e+02  2.000000000000000000e+00
1.272000000000000064e+01  1.000000000000000000e+00  1.810000000000000053e+00  2.200000000000000178e+00  1.880000000000000071e+01  8.600000000000000000e+01  2.200000000000000178e+00  2.529999999999999805e+00  2.600000000000000089e-01  1.770000000000000018e+00  3.899999999999999911e+00  1.159999999999999920e+00  3.140000000000000124e+00  1.000000000000000000e+00  7.140000000000000000e+02  2.000000000000000000e+00
1.208000000000000007e+01  1.000000000000000000e+00  1.129999999999999893e+00  2.509999999999999787e+00  2.400000000000000000e+01  7.800000000000000000e+01  2.000000000000000000e+00  1.580000000000000071e+00  4.000000000000000222e-01  1.399999999999999911e+00  2.200000000000000178e+00  1.310000000000000053e+00  2.720000000000000195e+00  1.000000000000000000e+00  6.300000000000000000e+02  2.000000000000000000e+00
1.305000000000000071e+01  0.000000000000000000e+00  3.859999999999999876e+00  2.319999999999999840e+00  2.250000000000000000e+01  8.500000000000000000e+01  1.649999999999999911e+00  1.590000000000000080e+00  6.099999999999999867e-01  1.620000000000000107e+00  4.799999999999999822e+00  8.399999999999999689e-01  2.009999999999999787e+00  1.000000000000000000e+00  5.150000000000000000e+02  2.000000000000000000e+00
1.183999999999999986e+01  0.000000000000000000e+00  8.900000000000000133e-01  2.580000000000000071e+00  1.800000000000000000e+01  9.400000000000000000e+01  2.200000000000000178e+00  2.209999999999999964e+00  2.200000000000000011e-01  2.350000000000000089e+00  3.049999999999999822e+00  7.900000000000000355e-01  3.080000000000000071e+00  0.000000000000000000e+00  5.200000000000000000e+02  2.000000000000000000e+00
1.266999999999999993e+01  1.000000000000000000e+00  9.799999999999999822e-01  2.240000000000000213e+00  1.800000000000000000e+01  9.900000000000000000e+01  2.200000000000000178e+00  1.939999999999999947e+00  2.999999999999999889e-01  1.459999999999999964e+00  2.620000000000000107e+00  1.229999999999999982e+00  3.160000000000000142e+00  0.000000000000000000e+00  4.500000000000000000e+02  2.000000000000000000e+00
1.216000000000000014e+01  0.000000000000000000e+00  1.610000000000000098e+00  2.310000000000000053e+00  2.280000000000000071e+01  9.000000000000000000e+01  1.780000000000000027e+00  1.689999999999999947e+00  4.299999999999999933e-01  1.560000000000000053e+00  2.450000000000000178e+00  1.330000000000000071e+00  2.259999999999999787e+00  0.000000000000000000e+00  4.950000000000000000e+02  2.000000000000000000e+00
1.165000000000000036e+01  1.000000000000000000e+00  1.669999999999999929e+00  2.620000000000000107e+00  2.600000000000000000e+01  8.800000000000000000e+01  1.919999999999999929e+00  1.610000000000000098e+00  4.000000000000000222e-01  1.340000000000000080e+00  2.600000000000000089e+00  1.360000000000000098e+00  3.209999999999999964e+00  0.000000000000000000e+00  5.620000000000000000e+02  2.000000000000000000e+00
1.164000000000000057e+01  0.000000000000000000e+00  2.060000000000000053e+00  2.459999999999999964e+00  2.160000000000000142e+01  8.400000000000000000e+01  1.949999999999999956e+00  1.689999999999999947e+00  4.799999999999999822e-01  1.350000000000000089e+00  2.799999999999999822e+00  1.000000000000000000e+00  2.750000000000000000e+00  0.000000000000000000e+00  6.800000000000000000e+02  2.000000000000000000e+00
1.208000000000000007e+01  1.000000000000000000e+00  1.330000000000000071e+00  2.299999999999999822e+00  2.360000000000000142e+01  7.000000000000000000e+01  2.200000000000000178e+00  1.590000000000000080e+00  4.199999999999999845e-01  1.379999999999999893e+00  1.739999999999999991e+00  1.070000000000000062e+00  3.209999999999999964e+00  0.000000000000000000e+00  6.250000000000000000e+02  2.000000000000000000e+00
1.208000000000000007e+01  0.000000000000000000e+00  1.830000000000000071e+00  2.319999999999999840e+00  1.850000000000000000e+01  8.100000000000000000e+01  1.600000000000000089e+00  1.500000000000000000e+00  5.200000000000000178e-01  1.639999999999999902e+00  2.399999999999999911e+00  1.080000000000000071e+00  2.270000000000000018e+00  1.000000000000000000e+00  4.800000000000000000e+02  2.000000000000000000e+00
1.200000000000000000e+01  1.000000000000000000e+00  1.510000000000000009e+00  2.419999999999999929e+00  2.200000000000000000e+01  8.600000000000000000e+01  1.449999999999999956e+00  1.250000000000000000e+00  5.000000000000000000e-01  1.629999999999999893e+00  3.600000000000000089e+00  1.050000000000000044e+00  2.649999999999999911e+00  0.000000000000000000e+00  4.500000000000000000e+02  2.000000000000000000e+00
1.268999999999999950e+01  1.000000000000000000e+00  1.530000000000000027e+00  2.259999999999999787e+00  2.069999999999999929e+01  8.000000000000000000e+01  1.379999999999999893e+00  1.459999999999999964e+00  5.799999999999999600e-01  1.620000000000000107e+00  3.049999999999999822e+00  9.599999999999999645e-01  2.060000000000000053e+00  1.000000000000000000e+00  4.950000000000000000e+02  2.000000000000000000e+00
1.228999999999999915e+01  1.000000000000000000e+00  2.830000000000000071e+00  2.220000000000000195e+00  1.800000000000000000e+01  8.800000000000000000e+01  2.450000000000000178e+00  2.250000000000000000e+00  2.500000000000000000e-01  1.989999999999999991e+00  2.149999999999999911e+00  1.149999999999999911e+00  3.299999999999999822e+00  1.000000000000000000e+00  2.900000000000000000e+02  2.000000000000000000e+00
1.161999999999999922e+01  1.000000000000000000e+00  1.989999999999999991e+00  2.279999999999999805e+00  1.800000000000000000e+01  9.800000000000000000e+01  3.020000000000000018e+00  2.259999999999999787e+00  1.700000000000000122e-01  1.350000000000000089e+00  3.250000000000000000e+00  1.159999999999999920e+00  2.959999999999999964e+00  1.000000000000000000e+00  3.450000000000000000e+02  2.000000000000000000e+00
1.247000000000000064e+01  1.000000000000000000e+00  1.520000000000000018e+00  2.200000000000000178e+00  1.900000000000000000e+01  1.620000000000000000e+02  2.500000000000000000e+00  2.270000000000000018e+00  3.200000000000000067e-01  3.279999999999999805e+00  2.600000000000000089e+00  1.159999999999999920e+00  2.629999999999999893e+00  0.000000000000000000e+00  9.370000000000000000e+02  2.000000000000000000e+00
1.181000000000000050e+01  1.000000000000000000e+00  2.120000000000000107e+00  2.740000000000000213e+00  2.150000000000000000e+01  1.340000000000000000e+02  1.600000000000000089e+00  9.899999999999999911e-01  1.400000000000000133e-01  1.560000000000000053e+00  2.500000000000000000e+00  9.499999999999999556e-01  2.259999999999999787e+00  1.000000000000000000e+00  6.250000000000000000e+02  2.000000000000000000e+00
1.228999999999999915e+01  0.000000000000000000e+00  1.409999999999999920e+00  1.979999999999999982e+00  1.600000000000000000e+01  8.500000000000000000e+01  2.549999999999999822e+00  2.500000000000000000e+00  2.899999999999999800e-01  1.770000000000000018e+00  2.899999999999999911e+00  1.229999999999999982e+00  2.740000000000000213e+00  0.000000000000000000e+00  4.280000000000000000e+02  2.000000000000000000e+00
1.236999999999999922e+01  0.000000000000000000e+00  1.070000000000000062e+00  2.100000000000000089e+00  1.850000000000000000e+01  8.800000000000000000e+01  3.520000000000000018e+00  3.750000000000000000e+00  2.399999999999999911e-01  1.949999999999999956e+00  4.500000000000000000e+00  1.040000000000000036e+00  2.770000000000000018e+00  1.000000000000000000e+00  6.600000000000000000e+02  2.000000000000000000e+00
1.228999999999999915e+01  0.000000000000000000e+00  3.169999999999999929e+00  2.209999999999999964e+00  1.800000000000000000e+01  8.800000000000000000e+01  2.850000000000000089e+00  2.990000000000000213e+00  4.500000000000000111e-01  2.810000000000000053e+00  2.299999999999999822e+00  1.419999999999999929e+00  2.830000000000000071e+00  0.000000000000000000e+00  4.060000000000000000e+02  2.000000000000000000e+00
1.208000000000000007e+01  0.000000000000000000e+00  2.080000000000000071e+00  1.699999999999999956e+00  1.750000000000000000e+01  9.700000000000000000e+01  2.229999999999999982e+00  2.169999999999999929e+00  2.600000000000000089e-01  1.399999999999999911e+00  3.299999999999999822e+00  1.270000000000000018e+00  2.959999999999999964e+00  0.000000000000000000e+00  7.100000000000000000e+02  2.000000000000000000e+00
1.259999999999999964e+01  0.000000000000000000e+00  1.340000000000000080e+00  1.899999999999999911e+00  1.850000000000000000e+01  8.800000000000000000e+01  1.449999999999999956e+00  1.360000000000000098e+00  2.899999999999999800e-01  1.350000000000000089e+00  2.450000000000000178e+00  1.040000000000000036e+00  2.770000000000000018e+00  0.000000000000000000e+00  5.620000000000000000e+02  2.000000000000000000e+00
1.233999999999999986e+01  1.000000000000000000e+00  2.450000000000000178e+00  2.459999999999999964e+00  2.100000000000000000e+01  9.800000000000000000e+01  2.560000000000000053e+00  2.109999999999999876e+00  3.400000000000000244e-01  1.310000000000000053e+00  2.799999999999999822e+00  8.000000000000000444e-01  3.379999999999999893e+00  1.000000000000000000e+00  4.380000000000000000e+02  2.000000000000000000e+00
1.182000000000000028e+01  0.000000000000000000e+00  1.719999999999999973e+00  1.879999999999999893e+00  1.950000000000000000e+01  8.600000000000000000e+01  2.500000000000000000e+00  1.639999999999999902e+00  3.699999999999999956e-01  1.419999999999999929e+00  2.060000000000000053e+00  9.399999999999999467e-01  2.439999999999999947e+00  1.000000000000000000e+00  4.150000000000000000e+02  2.000000000000000000e+00
1.250999999999999979e+01  1.000000000000000000e+00  1.729999999999999982e+00  1.979999999999999982e+00  2.050000000000000000e+01  8.500000000000000000e+01  2.200000000000000178e+00  1.919999999999999929e+00  3.200000000000000067e-01  1.479999999999999982e+00  2.939999999999999947e+00  1.040000000000000036e+00  3.569999999999999840e+00  1.000000000000000000e+00  6.720000000000000000e+02  2.000000000000000000e+00
1.241999999999999993e+01  1.000000000000000000e+00  2.549999999999999822e+00  2.270000000000000018e+00  2.200000000000000000e+01  9.000000000000000000e+01  1.679999999999999938e+00  1.840000000000000080e+00  6.600000000000000311e-01  1.419999999999999929e+00  2.700000000000000178e+00  8.599999999999999867e-01  3.299999999999999822e+00  0.000000000000000000e+00  3.150000000000000000e+02  2.000000000000000000e+00
1.225000000000000000e+01  1.000000000000000000e+00  1.729999999999999982e+00  2.120000000000000107e+00  1.900000000000000000e+01  8.000000000000000000e+01  1.649999999999999911e+00  2.029999999999999805e+00  3.699999999999999956e-01  1.629999999999999893e+00  3.399999999999999911e+00  1.000000000000000000e+00  3.169999999999999929e+00  1.000000000000000000e+00  5.100000000000000000e+02  2.000000000000000000e+00
1.272000000000000064e+01  1.000000000000000000e+00  1.750000000000000000e+00  2.279999999999999805e+00  2.250000000000000000e+01  8.400000000000000000e+01  1.379999999999999893e+00  1.760000000000000009e+00  4.799999999999999822e-01  1.629999999999999893e+00  3.299999999999999822e+00  8.800000000000000044e-01  2.419999999999999929e+00  1.000000000000000000e+00  4.880000000000000000e+02  2.000000000000000000e+00
1.222000000000000064e+01  1.000000000000000000e+00  1.290000000000000036e+00  1.939999999999999947e+00  1.900000000000000000e+01  9.200000000000000000e+01  2.359999999999999876e+00  2.040000000000000036e+00  3.900000000000000133e-01  2.080000000000000071e+00  2.700000000000000178e+00  8.599999999999999867e-01  3.020000000000000018e+00  1.000000000000000000e+00  3.120000000000000000e+02  2.000000000000000000e+00
1.160999999999999943e+01  1.000000000000000000e+00  1.350000000000000089e+00  2.700000000000000178e+00  2.000000000000000000e+01  9.400000000000000000e+01  2.740000000000000213e+00  2.919999999999999929e+00  2.899999999999999800e-01  2.490000000000000213e+00  2.649999999999999911e+00  9.599999999999999645e-01  3.259999999999999787e+00  1.000000000000000000e+00  6.800000000000000000e+02  2.000000000000000000e+00
1.146000000000000085e+01  1.000000000000000000e+00  3.740000000000000213e+00  1.820000000000000062e+00  1.950000000000000000e+01  1.070000000000000000e+02  3.180000000000000160e+00  2.580000000000000071e+00  2.399999999999999911e-01  3.580000000000000071e+00  2.899999999999999911e+00  7.500000000000000000e-01  2.810000000000000053e+00  0.000000000000000000e+00  5.620000000000000000e+02  2.000000000000000000e+00
1.251999999999999957e+01  1.000000000000000000e+00  2.430000000000000160e+00  2.169999999999999929e+00  2.100000000000000000e+01  8.800000000000000000e+01  2.549999999999999822e+00  2.270000000000000018e+00  2.600000000000000089e-01  1.219999999999999973e+00  2.000000000000000000e+00  9.000000000000000222e-01  2.779999999999999805e+00  1.000000000000000000e+00  3.250000000000000000e+02  2.000000000000000000e+00
1.175999999999999979e+01  0.000000000000000000e+00  2.680000000000000160e+00  2.919999999999999929e+00  2.000000000000000000e+01  1.030000000000000000e+02  1.750000000000000000e+00  2.029999999999999805e+00  5.999999999999999778e-01  1.050000000000000044e+00  3.799999999999999822e+00  1.229999999999999982e+00  2.500000000000000000e+00  0.000000000000000000e+00  6.070000000000000000e+02  2.000000000000000000e+00
1.141000000000000014e+01  0.000000000000000000e+00  7.399999999999999911e-01  2.500000000000000000e+00  2.100000000000000000e+01  8.800000000000000000e+01  2.479999999999999982e+00  2.009999999999999787e+00  4.199999999999999845e-01  1.439999999999999947e+00  3.080000000000000071e+00  1.100000000000000089e+00  2.310000000000000053e+00  1.000000000000000000e+00  4.340000000000000000e+02  2.000000000000000000e+00
1.208000000000000007e+01  1.000000000000000000e+00  1.389999999999999902e+00  2.500000000000000000e+00  2.250000000000000000e+01  8.400000000000000000e+01  2.560000000000000053e+00  2.290000000000000036e+00  4.299999999999999933e-01  1.040000000000000036e+00  2.899999999999999911e+00  9.300000000000000488e-01  3.189999999999999947e+00  0.000000000000000000e+00  3.850000000000000000e+02  2.000000000000000000e+00
1.102999999999999936e+01  1.000000000000000000e+00  1.510000000000000009e+00  2.200000000000000178e+00  2.150000000000000000e+01  8.500000000000000000e+01  2.459999999999999964e+00  2.169999999999999929e+00  5.200000000000000178e-01  2.009999999999999787e+00  1.899999999999999911e+00  1.709999999999999964e+00  2.870000000000000107e+00  0.000000000000000000e+00  4.070000000000000000e+02  2.000000000000000000e+00
1.182000000000000028e+01  1.000000000000000000e+00  1.469999999999999973e+00  1.989999999999999991e+00  2.080000000000000071e+01  8.600000000000000000e+01  1.979999999999999982e+00  1.600000000000000089e+00  2.999999999999999889e-01  1.530000000000000027e+00  1.949999999999999956e+00  9.499999999999999556e-01  3.330000000000000071e+00  0.000000000000000000e+00  4.950000000000000000e+02  2.000000000000000000e+00
1.241999999999999993e+01  1.000000000000000000e+00  1.610000000000000098e+00  2.189999999999999947e+00  2.250000000000000000e+01  1.080000000000000000e+02  2.000000000000000000e+00  2.089999999999999858e+00  3.400000000000000244e-01  1.610000000000000098e+00  2.060000000000000053e+00  1.060000000000000053e+00  2.959999999999999964e+00  1.000000000000000000e+00  3.450000000000000000e+02  2.000000000000000000e+00
1.276999999999999957e+01  1.000000000000000000e+00  3.430000000000000160e+00  1.979999999999999982e+00  1.600000000000000000e+01  8.000000000000000000e+01  1.629999999999999893e+00  1.250000000000000000e+00  4.299999999999999933e-01  8.299999999999999600e-01  3.399999999999999911e+00  6.999999999999999556e-01  2.120000000000000107e+00  1.000000000000000000e+00  3.720000000000000000e+02  2.000000000000000000e+00
1.200000000000000000e+01  1.000000000000000000e+00  3.430000000000000160e+00  2.000000000000000000e+00  1.900000000000000000e+01  8.700000000000000000e+01  2.000000000000000000e+00  1.639999999999999902e+00  3.699999999999999956e-01  1.870000000000000107e+00  1.280000000000000027e+00  9.300000000000000488e-01  3.049999999999999822e+00  0.000000000000000000e+00  5.640000000000000000e+02  2.000000000000000000e+00
1.144999999999999929e+01  1.000000000000000000e+00  2.399999999999999911e+00  2.419999999999999929e+00  2.000000000000000000e+01  9.600000000000000000e+01  2.899999999999999911e+00  2.790000000000000036e+00  3.200000000000000067e-01  1.830000000000000071e+00  3.250000000000000000e+00  8.000000000000000444e-01  3.390000000000000124e+00  0.000000000000000000e+00  6.250000000000000000e+02  2.000000000000000000e+00
1.156000000000000050e+01  1.000000000000000000e+00  2.049999999999999822e+00  3.229999999999999982e+00  2.850000000000000000e+01  1.190000000000000000e+02  3.180000000000000160e+00  5.080000000000000071e+00  4.699999999999999734e-01  1.870000000000000107e+00  6.000000000000000000e+00  9.300000000000000488e-01  3.689999999999999947e+00  0.000000000000000000e+00  4.650000000000000000e+02  2.000000000000000000e+00
1.241999999999999993e+01  0.000000000000000000e+00  4.429999999999999716e+00  2.729999999999999982e+00  2.650000000000000000e+01  1.020000000000000000e+02  2.200000000000000178e+00  2.129999999999999893e+00  4.299999999999999933e-01  1.709999999999999964e+00  2.080000000000000071e+00  9.200000000000000400e-01  3.120000000000000107e+00  0.000000000000000000e+00  3.650000000000000000e+02  2.000000000000000000e+00
1.305000000000000071e+01  0.000000000000000000e+00  5.799999999999999822e+00  2.129999999999999893e+00  2.150000000000000000e+01  8.600000000000000000e+01  2.620000000000000107e+00  2.649999999999999911e+00  2.999999999999999889e-01  2.009999999999999787e+00  2.600000000000000089e+00  7.299999999999999822e-01  3.100000000000000089e+00  1.000000000000000000e+00  3.800000000000000000e+02  2.000000000000000000e+00
1.186999999999999922e+01  1.000000000000000000e+00  4.309999999999999609e+00  2.390000000000000124e+00  2.100000000000000000e+01  8.200000000000000000e+01  2.859999999999999876e+00  3.029999999999999805e+00  2.099999999999999922e-01  2.910000000000000142e+00  2.799999999999999822e+00  7.500000000000000000e-01  3.640000000000000124e+00  0.000000000000000000e+00  3.800000000000000000e+02  2.000000000000000000e+00
1.207000000000000028e+01  1.000000000000000000e+00  2.160000000000000142e+00  2.169999999999999929e+00  2.100000000000000000e+01  8.500000000000000000e+01  2.600000000000000089e+00  2.649999999999999911e+00  3.699999999999999956e-01  1.350000000000000089e+00  2.759999999999999787e+00  8.599999999999999867e-01  3.279999999999999805e+00  1.000000000000000000e+00  3.780000000000000000e+02  2.000000000000000000e+00
1.242999999999999972e+01  1.000000000000000000e+00  1.530000000000000027e+00  2.290000000000000036e+00  2.150000000000000000e+01  8.600000000000000000e+01  2.740000000000000213e+00  3.149999999999999911e+00  3.900000000000000133e-01  1.770000000000000018e+00  3.939999999999999947e+00  6.899999999999999467e-01  2.839999999999999858e+00  1.000000000000000000e+00  3.520000000000000000e+02  2.000000000000000000e+00
1.178999999999999915e+01  0.000000000000000000e+00  2.129999999999999893e+00  2.779999999999999805e+00  2.850000000000000000e+01  9.200000000000000000e+01  2.129999999999999893e+00  2.240000000000000213e+00  5.799999999999999600e-01  1.760000000000000009e+00  3.000000000000000000e+00  9.699999999999999734e-01  2.439999999999999947e+00  1.000000000000000000e+00  4.660000000000000000e+02  2.000000000000000000e+00
1.236999999999999922e+01  0.000000000000000000e+00  1.629999999999999893e+00  2.299999999999999822e+00  2.450000000000000000e+01  8.800000000000000000e+01  2.220000000000000195e+00  2.450000000000000178e+00  4.000000000000000222e-01  1.899999999999999911e+00  2.120000000000000107e+00  8.900000000000000133e-01  2.779999999999999805e+00  0.000000000000000000e+00  3.420000000000000000e+02  2.000000000000000000e+00
1.203999999999999915e+01  0.000000000000000000e+00  4.299999999999999822e+00  2.379999999999999893e+00  2.200000000000000000e+01  8.000000000000000000e+01  2.100000000000000089e+00  1.750000000000000000e+00  4.199999999999999845e-01  1.350000000000000089e+00  2.600000000000000089e+00  7.900000000000000355e-01  2.569999999999999840e+00  1.000000000000000000e+00  5.800000000000000000e+02  2.000000000000000000e+00
1.285999999999999943e+01  0.000000000000000000e+00  1.350000000000000089e+00  2.319999999999999840e+00  1.800000000000000000e+01  1.220000000000000000e+02  1.510000000000000009e+00  1.250000000000000000e+00  2.099999999999999922e-01  9.399999999999999467e-01  4.099999999999999645e+00  7.600000000000000089e-01  1.290000000000000036e+00  0.000000000000000000e+00  6.300000000000000000e+02  3.000000000000000000e+00
1.288000000000000078e+01  0.000000000000000000e+00  2.990000000000000213e+00  2.399999999999999911e+00  2.000000000000000000e+01  1.040000000000000000e+02  1.300000000000000044e+00  1.219999999999999973e+00  2.399999999999999911e-01  8.299999999999999600e-01  5.400000000000000355e+00  7.399999999999999911e-01  1.419999999999999929e+00  1.000000000000000000e+00  5.300000000000000000e+02  3.000000000000000000e+00
1.281000000000000050e+01  1.000000000000000000e+00  2.310000000000000053e+00  2.399999999999999911e+00  2.400000000000000000e+01  9.800000000000000000e+01  1.149999999999999911e+00  1.090000000000000080e+00  2.700000000000000178e-01  8.299999999999999600e-01  5.700000000000000178e+00  6.600000000000000311e-01  1.360000000000000098e+00  0.000000000000000000e+00  5.600000000000000000e+02  3.000000000000000000e+00
1.269999999999999929e+01  0.000000000000000000e+00  3.549999999999999822e+00  2.359999999999999876e+00  2.150000000000000000e+01  1.060000000000000000e+02  1.699999999999999956e+00  1.199999999999999956e+00  1.700000000000000122e-01  8.399999999999999689e-01  5.000000000000000000e+00  7.800000000000000266e-01  1.290000000000000036e+00  0.000000000000000000e+00  6.000000000000000000e+02  3.000000000000000000e+00
1.250999999999999979e+01  1.000000000000000000e+00  1.239999999999999991e+00  2.250000000000000000e+00  1.750000000000000000e+01  8.500000000000000000e+01  2.000000000000000000e+00  5.799999999999999600e-01  5.999999999999999778e-01  1.250000000000000000e+00  5.450000000000000178e+00  7.500000000000000000e-01  1.510000000000000009e+00  0.000000000000000000e+00  6.500000000000000000e+02  3.000000000000000000e+00
1.259999999999999964e+01  1.000000000000000000e+00  2.459999999999999964e+00  2.200000000000000178e+00  1.850000000000000000e+01  9.400000000000000000e+01  1.620000000000000107e+00  6.600000000000000311e-01  6.300000000000000044e-01  9.399999999999999467e-01  7.099999999999999645e+00  7.299999999999999822e-01  1.580000000000000071e+00  1.000000000000000000e+00  6.950000000000000000e+02  3.000000000000000000e+00
1.225000000000000000e+01  1.000000000000000000e+00  4.719999999999999751e+00  2.540000000000000036e+00  2.100000000000000000e+01  8.900000000000000000e+01  1.379999999999999893e+00  4.699999999999999734e-01  5.300000000000000266e-01  8.000000000000000444e-01  3.850000000000000089e+00  7.500000000000000000e-01  1.270000000000000018e+00  1.000000000000000000e+00  7.200000000000000000e+02  3.000000000000000000e+00
1.252999999999999936e+01  1.000000000000000000e+00  5.509999999999999787e+00  2.640000000000000124e+00  2.500000000000000000e+01  9.600000000000000000e+01  1.790000000000000036e+00  5.999999999999999778e-01  6.300000000000000044e-01  1.100000000000000089e+00  5.000000000000000000e+00  8.199999999999999512e-01  1.689999999999999947e+00  1.000000000000000000e+00  5.150000000000000000e+02  3.000000000000000000e+00
1.349000000000000021e+01  1.000000000000000000e+00  3.589999999999999858e+00  2.189999999999999947e+00  1.950000000000000000e+01  8.800000000000000000e+01  1.620000000000000107e+00  4.799999999999999822e-01  5.799999999999999600e-01  8.800000000000000044e-01  5.700000000000000178e+00  8.100000000000000533e-01  1.820000000000000062e+00  0.000000000000000000e+00  5.800000000000000000e+02  3.000000000000000000e+00
1.283999999999999986e+01  1.000000000000000000e+00  2.959999999999999964e+00  2.609999999999999876e+00  2.400000000000000000e+01  1.010000000000000000e+02  2.319999999999999840e+00  5.999999999999999778e-01  5.300000000000000266e-01  8.100000000000000533e-01  4.919999999999999929e+00  8.900000000000000133e-01  2.149999999999999911e+00  1.000000000000000000e+00  5.900000000000000000e+02  3.000000000000000000e+00
1.292999999999999972e+01  1.000000000000000000e+00  2.810000000000000053e+00  2.700000000000000178e+00  2.100000000000000000e+01  9.600000000000000000e+01  1.540000000000000036e+00  5.000000000000000000e-01  5.300000000000000266e-01  7.500000000000000000e-01  4.599999999999999645e+00  7.700000000000000178e-01  2.310000000000000053e+00  1.000000000000000000e+00  6.000000000000000000e+02  3.000000000000000000e+00
1.335999999999999943e+01  1.000000000000000000e+00  2.560000000000000053e+00  2.350000000000000089e+00  2.000000000000000000e+01  8.900000000000000000e+01  1.399999999999999911e+00  5.000000000000000000e-01  3.699999999999999956e-01  6.400000000000000133e-01  5.599999999999999645e+00  6.999999999999999556e-01  2.470000000000000195e+00  1.000000000000000000e+00  7.800000000000000000e+02  3.000000000000000000e+00
1.351999999999999957e+01  1.000000000000000000e+00  3.169999999999999929e+00  2.720000000000000195e+00  2.350000000000000000e+01  9.700000000000000000e+01  1.550000000000000044e+00  5.200000000000000178e-01  5.000000000000000000e-01  5.500000000000000444e-01  4.349999999999999645e+00  8.900000000000000133e-01  2.060000000000000053e+00  1.000000000000000000e+00  5.200000000000000000e+02  3.000000000000000000e+00
1.361999999999999922e+01  0.000000000000000000e+00  4.950000000000000178e+00  2.350000000000000089e+00  2.000000000000000000e+01  9.200000000000000000e+01  2.000000000000000000e+00  8.000000000000000444e-01  4.699999999999999734e-01  1.020000000000000018e+00  4.400000000000000355e+00  9.100000000000000311e-01  2.049999999999999822e+00  1.000000000000000000e+00  5.500000000000000000e+02  3.000000000000000000e+00
1.225000000000000000e+01  0.000000000000000000e+00  3.879999999999999893e+00  2.200000000000000178e+00  1.850000000000000000e+01  1.120000000000000000e+02  1.379999999999999893e+00  7.800000000000000266e-01  2.899999999999999800e-01  1.139999999999999902e+00  8.210000000000000853e+00  6.500000000000000222e-01  2.000000000000000000e+00  1.000000000000000000e+00  8.550000000000000000e+02  3.000000000000000000e+00
1.316000000000000014e+01  1.000000000000000000e+00  3.569999999999999840e+00  2.149999999999999911e+00  2.100000000000000000e+01  1.020000000000000000e+02  1.500000000000000000e+00  5.500000000000000444e-01  4.299999999999999933e-01  1.300000000000000044e+00  4.000000000000000000e+00  5.999999999999999778e-01  1.679999999999999938e+00  1.000000000000000000e+00  8.300000000000000000e+02  3.000000000000000000e+00
1.388000000000000078e+01  1.000000000000000000e+00  5.040000000000000036e+00  2.229999999999999982e+00  2.000000000000000000e+01  8.000000000000000000e+01  9.799999999999999822e-01  3.400000000000000244e-01  4.000000000000000222e-01  6.800000000000000488e-01  4.900000000000000355e+00  5.799999999999999600e-01  1.330000000000000071e+00  0.000000000000000000e+00  4.150000000000000000e+02  3.000000000000000000e+00
1.286999999999999922e+01  1.000000000000000000e+00  4.610000000000000320e+00  2.479999999999999982e+00  2.150000000000000000e+01  8.600000000000000000e+01  1.699999999999999956e+00  6.500000000000000222e-01  4.699999999999999734e-01  8.599999999999999867e-01  7.650000000000000355e+00  5.400000000000000355e-01  1.860000000000000098e+00  1.000000000000000000e+00  6.250000000000000000e+02  3.000000000000000000e+00
1.332000000000000028e+01  1.000000000000000000e+00  3.240000000000000213e+00  2.379999999999999893e+00  2.150000000000000000e+01  9.200000000000000000e+01  1.929999999999999938e+00  7.600000000000000089e-01  4.500000000000000111e-01  1.250000000000000000e+00  8.419999999999999929e+00  5.500000000000000444e-01  1.620000000000000107e+00  0.000000000000000000e+00  6.500000000000000000e+02  3.000000000000000000e+00
1.308000000000000007e+01  1.000000000000000000e+00  3.899999999999999911e+00  2.359999999999999876e+00  2.150000000000000000e+01  1.130000000000000000e+02  1.409999999999999920e+00  1.389999999999999902e+00  3.400000000000000244e-01  1.139999999999999902e+00  9.400000000000000355e+00  5.699999999999999512e-01  1.330000000000000071e+00  1.000000000000000000e+00  5.500000000000000000e+02  3.000000000000000000e+00
1.350000000000000000e+01  1.000000000000000000e+00  3.120000000000000107e+00  2.620000000000000107e+00  2.400000000000000000e+01  1.230000000000000000e+02  1.399999999999999911e+00  1.570000000000000062e+00  2.200000000000000011e-01  1.250000000000000000e+00  8.599999999999999645e+00  5.899999999999999689e-01  1.300000000000000044e+00  0.000000000000000000e+00  5.000000000000000000e+02  3.000000000000000000e+00
1.278999999999999915e+01  1.000000000000000000e+00  2.669999999999999929e+00  2.479999999999999982e+00  2.200000000000000000e+01  1.120000000000000000e+02  1.479999999999999982e+00  1.360000000000000098e+00  2.399999999999999911e-01  1.260000000000000009e+00  1.080000000000000071e+01  4.799999999999999822e-01  1.469999999999999973e+00  0.000000000000000000e+00  4.800000000000000000e+02  3.000000000000000000e+00
1.310999999999999943e+01  1.000000000000000000e+00  1.899999999999999911e+00  2.750000000000000000e+00  2.550000000000000000e+01  1.160000000000000000e+02  2.200000000000000178e+00  1.280000000000000027e+00  2.600000000000000089e-01  1.560000000000000053e+00  7.099999999999999645e+00  6.099999999999999867e-01  1.330000000000000071e+00  0.000000000000000000e+00  4.250000000000000000e+02  3.000000000000000000e+00
1.323000000000000043e+01  1.000000000000000000e+00  3.299999999999999822e+00  2.279999999999999805e+00  1.850000000000000000e+01  9.800000000000000000e+01  1.800000000000000044e+00  8.299999999999999600e-01  6.099999999999999867e-01  1.870000000000000107e+00  1.051999999999999957e+01  5.600000000000000533e-01  1.510000000000000009e+00  1.000000000000000000e+00  6.750000000000000000e+02  3.000000000000000000e+00
1.258000000000000007e+01  0.000000000000000000e+00  1.290000000000000036e+00  2.100000000000000089e+00  2.000000000000000000e+01  1.030000000000000000e+02  1.479999999999999982e+00  5.799999999999999600e-01  5.300000000000000266e-01  1.399999999999999911e+00  7.599999999999999645e+00  5.799999999999999600e-01  1.550000000000000044e+00  1.000000000000000000e+00  6.400000000000000000e+02  3.000000000000000000e+00
1.316999999999999993e+01  0.000000000000000000e+00  5.190000000000000391e+00  2.319999999999999840e+00  2.200000000000000000e+01  9.300000000000000000e+01  1.739999999999999991e+00  6.300000000000000044e-01  6.099999999999999867e-01  1.550000000000000044e+00  7.900000000000000355e+00  5.999999999999999778e-01  1.479999999999999982e+00  1.000000000000000000e+00  7.250000000000000000e+02  3.000000000000000000e+00
1.383999999999999986e+01  1.000000000000000000e+00  4.120000000000000107e+00  2.379999999999999893e+00  1.950000000000000000e+01  8.900000000000000000e+01  1.800000000000000044e+00  8.299999999999999600e-01  4.799999999999999822e-01  1.560000000000000053e+00  9.009999999999999787e+00  5.699999999999999512e-01  1.639999999999999902e+00  0.000000000000000000e+00  4.800000000000000000e+02  3.000000000000000000e+00
1.244999999999999929e+01  1.000000000000000000e+00  3.029999999999999805e+00  2.640000000000000124e+00  2.700000000000000000e+01  9.700000000000000000e+01  1.899999999999999911e+00  5.799999999999999600e-01  6.300000000000000044e-01  1.139999999999999902e+00  7.500000000000000000e+00  6.700000000000000400e-01  1.729999999999999982e+00  1.000000000000000000e+00  8.800000000000000000e+02  3.000000000000000000e+00
1.433999999999999986e+01  1.000000000000000000e+00  1.679999999999999938e+00  2.700000000000000178e+00  2.500000000000000000e+01  9.800000000000000000e+01  2.799999999999999822e+00  1.310000000000000053e+00  5.300000000000000266e-01  2.700000000000000178e+00  1.300000000000000000e+01  5.699999999999999512e-01  1.959999999999999964e+00  1.000000000000000000e+00  6.600000000000000000e+02  3.000000000000000000e+00
1.348000000000000043e+01  1.000000000000000000e+00  1.669999999999999929e+00  2.640000000000000124e+00  2.250000000000000000e+01  8.900000000000000000e+01  2.600000000000000089e+00  1.100000000000000089e+00  5.200000000000000178e-01  2.290000000000000036e+00  1.175000000000000000e+01  5.699999999999999512e-01  1.780000000000000027e+00  1.000000000000000000e+00  6.200000000000000000e+02  3.000000000000000000e+00
1.235999999999999943e+01  1.000000000000000000e+00  3.830000000000000071e+00  2.379999999999999893e+00  2.100000000000000000e+01  8.800000000000000000e+01  2.299999999999999822e+00  9.200000000000000400e-01  5.000000000000000000e-01  1.040000000000000036e+00  7.650000000000000355e+00  5.600000000000000533e-01  1.580000000000000071e+00  1.000000000000000000e+00  5.200000000000000000e+02  3.000000000000000000e+00
1.368999999999999950e+01  1.000000000000000000e+00  3.259999999999999787e+00  2.540000000000000036e+00  2.000000000000000000e+01  1.070000000000000000e+02  1.830000000000000071e+00  5.600000000000000533e-01  5.000000000000000000e-01  8.000000000000000444e-01  5.879999999999999893e+00  9.599999999999999645e-01  1.820000000000000062e+00  0.000000000000000000e+00  6.800000000000000000e+02  3.000000000000000000e+00
1.284999999999999964e+01  1.000000000000000000e+00  3.270000000000000018e+00  2.580000000000000071e+00  2.200000000000000000e+01  1.060000000000000000e+02  1.649999999999999911e+00  5.999999999999999778e-01  5.999999999999999778e-01  9.599999999999999645e-01  5.580000000000000071e+00  8.699999999999999956e-01  2.109999999999999876e+00  0.000000000000000000e+00  5.700000000000000000e+02  3.000000000000000000e+00
1.296000000000000085e+01  1.000000000000000000e+00  3.450000000000000178e+00  2.350000000000000089e+00  1.850000000000000000e+01  1.060000000000000000e+02  1.389999999999999902e+00  6.999999999999999556e-01  4.000000000000000222e-01  9.399999999999999467e-01  5.280000000000000249e+00  6.800000000000000488e-01  1.750000000000000000e+00  0.000000000000000000e+00  6.750000000000000000e+02  3.000000000000000000e+00
1.377999999999999936e+01  1.000000000000000000e+00  2.759999999999999787e+00  2.299999999999999822e+00  2.200000000000000000e+01  9.000000000000000000e+01  1.350000000000000089e+00  6.800000000000000488e-01  4.099999999999999756e-01  1.030000000000000027e+00  9.580000000000000071e+00  6.999999999999999556e-01  1.679999999999999938e+00  0.000000000000000000e+00  6.150000000000000000e+02  3.000000000000000000e+00
1.373000000000000043e+01  1.000000000000000000e+00  4.360000000000000320e+00  2.259999999999999787e+00  2.250000000000000000e+01  8.800000000000000000e+01  1.280000000000000027e+00  4.699999999999999734e-01  5.200000000000000178e-01  1.149999999999999911e+00  6.620000000000000107e+00  7.800000000000000266e-01  1.750000000000000000e+00  0.000000000000000000e+00  5.200000000000000000e+02  3.000000000000000000e+00
1.344999999999999929e+01  1.000000000000000000e+00  3.700000000000000178e+00  2.600000000000000089e+00  2.300000000000000000e+01  1.110000000000000000e+02  1.699999999999999956e+00  9.200000000000000400e-01  4.299999999999999933e-01  1.459999999999999964e+00  1.067999999999999972e+01  8.499999999999999778e-01  1.560000000000000053e+00  0.000000000000000000e+00  6.950000000000000000e+02  3.000000000000000000e+00
1.282000000000000028e+01  1.000000000000000000e+00  3.370000000000000107e+00  2.299999999999999822e+00  1.950000000000000000e+01  8.800000000000000000e+01  1.479999999999999982e+00  6.600000000000000311e-01  4.000000000000000222e-01  9.699999999999999734e-01  1.025999999999999979e+01  7.199999999999999734e-01  1.750000000000000000e+00  0.000000000000000000e+00  6.850000000000000000e+02  3.000000000000000000e+00
1.358000000000000007e+01  0.000000000000000000e+00  2.580000000000000071e+00  2.689999999999999947e+00  2.450000000000000000e+01  1.050000000000000000e+02  1.550000000000000044e+00  8.399999999999999689e-01  3.900000000000000133e-01  1.540000000000000036e+00  8.660000000000000142e+00  7.399999999999999911e-01  1.800000000000000044e+00  0.000000000000000000e+00  7.500000000000000000e+02  3.000000000000000000e+00
1.340000000000000036e+01  0.000000000000000000e+00  4.599999999999999645e+00  2.859999999999999876e+00  2.500000000000000000e+01  1.120000000000000000e+02  1.979999999999999982e+00  9.599999999999999645e-01  2.700000000000000178e-01  1.110000000000000098e+00  8.500000000000000000e+00  6.700000000000000400e-01  1.919999999999999929e+00  1.000000000000000000e+00  6.300000000000000000e+02  3.000000000000000000e+00
1.219999999999999929e+01  0.000000000000000000e+00  3.029999999999999805e+00  2.319999999999999840e+00  1.900000000000000000e+01  9.600000000000000000e+01  1.250000000000000000e+00  4.899999999999999911e-01  4.000000000000000222e-01  7.299999999999999822e-01  5.500000000000000000e+00  6.600000000000000311e-01  1.830000000000000071e+00  1.000000000000000000e+00  5.100000000000000000e+02  3.000000000000000000e+00
1.276999999999999957e+01  0.000000000000000000e+00  2.390000000000000124e+00  2.279999999999999805e+00  1.950000000000000000e+01  8.600000000000000000e+01  1.389999999999999902e+00  5.100000000000000089e-01  4.799999999999999822e-01  6.400000000000000133e-01  9.899998999999999327e+00  5.699999999999999512e-01  1.629999999999999893e+00  1.000000000000000000e+00  4.700000000000000000e+02  3.000000000000000000e+00
1.416000000000000014e+01  0.000000000000000000e+00  2.509999999999999787e+00  2.479999999999999982e+00  2.000000000000000000e+01  9.100000000000000000e+01  1.679999999999999938e+00  6.999999999999999556e-01  4.400000000000000022e-01  1.239999999999999991e+00  9.699999999999999289e+00  6.199999999999999956e-01  1.709999999999999964e+00  0.000000000000000000e+00  6.600000000000000000e+02  3.000000000000000000e+00
1.371000000000000085e+01  0.000000000000000000e+00  5.650000000000000355e+00  2.450000000000000178e+00  2.050000000000000000e+01  9.500000000000000000e+01  1.679999999999999938e+00  6.099999999999999867e-01  5.200000000000000178e-01  1.060000000000000053e+00  7.700000000000000178e+00  6.400000000000000133e-01  1.739999999999999991e+00  1.000000000000000000e+00  7.400000000000000000e+02  3.000000000000000000e+00
1.340000000000000036e+01  1.000000000000000000e+00  3.910000000000000142e+00  2.479999999999999982e+00  2.300000000000000000e+01  1.020000000000000000e+02  1.800000000000000044e+00  7.500000000000000000e-01  4.299999999999999933e-01  1.409999999999999920e+00  7.299999999999999822e+00  6.999999999999999556e-01  1.560000000000000053e+00  1.000000000000000000e+00  7.500000000000000000e+02  3.000000000000000000e+00
1.326999999999999957e+01  1.000000000000000000e+00  4.280000000000000249e+00  2.259999999999999787e+00  2.000000000000000000e+01  1.200000000000000000e+02  1.590000000000000080e+00  6.899999999999999467e-01  4.299999999999999933e-01  1.350000000000000089e+00  1.019999999999999929e+01  5.899999999999999689e-01  1.560000000000000053e+00  1.000000000000000000e+00  8.350000000000000000e+02  3.000000000000000000e+00
1.316999999999999993e+01  1.000000000000000000e+00  2.589999999999999858e+00  2.370000000000000107e+00  2.000000000000000000e+01  1.200000000000000000e+02  1.649999999999999911e+00  6.800000000000000488e-01  5.300000000000000266e-01  1.459999999999999964e+00  9.300000000000000711e+00  5.999999999999999778e-01  1.620000000000000107e+00  1.000000000000000000e+00  8.400000000000000000e+02  3.000000000000000000e+00
1.413000000000000078e+01  0.000000000000000000e+00  4.099999999999999645e+00  2.740000000000000213e+00  2.450000000000000000e+01  9.600000000000000000e+01  2.049999999999999822e+00  7.600000000000000089e-01  5.600000000000000533e-01  1.350000000000000089e+00  9.199999999999999289e+00  6.099999999999999867e-01  1.600000000000000089e+00  0.000000000000000000e+00  5.600000000000000000e+02  3.000000000000000000e+00
