0.22222223643433225	0.625000043922735	0.06779661435315862	0.04166667002863794	0.006842846083790599	0.7459655568876862	0.21668783316836515
0.16666667292945844	0.416666693521892	0.06779661579847629	0.041666669852693516	0.006842846083790599	0.7459655568876862	0.21668783316836515
0.11111111697631341	0.5000000249528054	0.050847461614112126	0.04166666938204408	0.006842846083790599	0.7459655568876862	0.21668783316836515
0.08333333490176802	0.45833336469049496	0.08474576424084365	0.04166667058216374	0.006842846083790599	0.7459655568876862	0.21668783316836515
0.1944444631760056	0.6666667117802905	0.0677966153343804	0.041666667774440176	0.006842846083790599	0.7459655568876862	0.21668783316836515
0.3055555801518545	0.7916666950218619	0.11864407945645718	0.1250000013661896	0.006842846083790599	0.7459655568876862	0.21668783316836515
0.08333333819518778	0.5833333859896807	0.06779661179015153	0.08333333385213873	0.006842846083790599	0.7459655568876862	0.21668783316836515
0.1944444521038721	0.5833333860389308	0.08474576275386786	0.04166666810121445	0.006842846083790599	0.7459655568876862	0.21668783316836515
0.027777779560295993	0.37500001591370036	0.06779661142697693	0.04166666914574056	0.006842846083790599	0.7459655568876862	0.21668783316836515
0.1666666716247165	0.4583333592626375	0.08474577114802626	1.0633830560704348e-08	0.006842846083790599	0.7459655568876862	0.21668783316836515
0.3055555641220752	0.7083333442989379	0.08474576735681724	0.04166666869781622	0.006842846083790599	0.7459655568876862	0.21668783316836515
0.13888889388152797	0.583333361348733	0.10169491799995124	0.0416666668803101	0.006842846083790599	0.7459655568876862	0.21668783316836515
0.13888890148812416	0.416666690546181	0.06779661374159378	2.368443854885882e-08	0.006842846083790599	0.7459655568876862	0.21668783316836515
7.487119426367667e-08	0.4166666763192583	0.016949152596965344	2.391080469183967e-08	0.006842846083790599	0.7459655568876862	0.21668783316836515
0.41666668605609547	0.8333333379161275	0.03389830510351032	0.04166666800420988	0.006842846083790599	0.7459655568876862	0.21668783316836515
0.3888889165772088	1.0000000735763592	0.08474576687028602	0.12500000221126706	0.006842846083790599	0.7459655568876862	0.21668783316836515
0.3055555643033684	0.7916667156338246	0.050847457773774134	0.12500000676308437	0.006842846083790599	0.7459655568876862	0.21668783316836515
0.22222223912075983	0.6250000269031213	0.06779661400713535	0.08333333401110297	0.006842846083790599	0.7459655568876862	0.21668783316836515
0.3888888904466613	0.7500000438492169	0.11864407819589899	0.08333333910203794	0.006842846083790599	0.7459655568876862	0.21668783316836515
0.22222223557009615	0.7500000360955386	0.08474576814885358	0.08333333428950895	0.006842846083790599	0.7459655568876862	0.21668783316836515
0.30555557078135037	0.5833333407794946	0.11864407701321093	0.0416666691672091	0.006842846083790599	0.7459655568876862	0.21668783316836515
0.22222222979114944	0.7083334022229951	0.08474576464890525	0.12500000706818937	0.006842846083790599	0.7459655568876862	0.21668783316836515
0.08333333869238412	0.6666667106514897	5.405763558715783e-08	0.041666668590494935	0.006842846083790599	0.7459655568876862	0.21668783316836515
0.2222222373595025	0.541666670771779	0.11864407366453103	0.16666667623969733	0.006842846083790599	0.7459655568876862	0.21668783316836515
0.1388888991786753	0.583333373459376	0.1525423763716511	0.04166666747857306	0.006842846083790599	0.7459655568876862	0.21668783316836515
0.1944444583521033	0.4166667063536448	0.10169491703896291	0.041666667853899844	0.006842846083790599	0.7459655568876862	0.21668783316836515
0.19444445649026784	0.5833333678870914	0.10169491725552039	0.1250000124696671	0.006842846083790599	0.7459655568876862	0.21668783316836515
0.2500000039456452	0.6250000362278701	0.08474577055131907	0.04166666848265169	0.006842846083790599	0.7459655568876862	0.21668783316836515
0.25000002458691367	0.5833333538666119	0.06779661313331875	0.041666667751709824	0.006842846083790599	0.7459655568876862	0.21668783316836515
0.11111111470403681	0.500000039037448	0.10169491770796826	0.04166667073467724	0.006842846083790599	0.7459655568876862	0.21668783316836515
0.13888890241420385	0.45833337066045393	0.10169492400317519	0.0416666674511154	0.006842846083790599	0.7459655568876862	0.21668783316836515
0.3055555747095933	0.5833333641592858	0.08474576957555975	0.12500000653775223	0.006842846083790599	0.7459655568876862	0.21668783316836515
0.2500000196093359	0.8750000494194486	0.08474576857396413	3.149764635452438e-08	0.006842846083790599	0.7459655568876862	0.21668783316836515
0.33333335003313846	0.916666713582724	0.06779661048024516	0.04166666942239272	0.006842846083790599	0.7459655568876862	0.21668783316836515
0.166666670665009	0.4583333557188592	0.08474576773616652	4.653489006701098e-08	0.006842846083790599	0.7459655568876862	0.21668783316836515
0.19444445084675904	0.5000000019711826	0.033898307906928035	0.041666668030850965	0.006842846083790599	0.7459655568876862	0.21668783316836515
0.33333335824998783	0.625000054160154	0.05084745924389481	0.041666668533836416	0.006842846083790599	0.7459655568876862	0.21668783316836515
0.16666667959621723	0.45833333591103864	0.08474577115156061	2.6180475522323985e-08	0.006842846083790599	0.7459655568876862	0.21668783316836515
0.027777780461290123	0.41666670817032564	0.050847462105808726	0.04166666880557196	0.006842846083790599	0.7459655568876862	0.21668783316836515
0.222222240932226	0.5833333522542725	0.08474577103904636	0.04166666787016812	0.006842846083790599	0.7459655568876862	0.21668783316836515
0.19444445040277653	0.6250000574749865	0.0508474615193007	0.08333333973958655	0.006842846083790599	0.7459655568876862	0.21668783316836515
0.05555555646066415	0.12500000072789455	0.05084746247846859	0.08333334061546599	0.006842846083790599	0.7459655568876862	0.21668783316836515
0.02777777843552153	0.5000000144484066	0.050847461745453106	0.04166666970026184	0.006842846083790599	0.7459655568876862	0.21668783316836515
0.1944444616115942	0.6250000286436236	0.10169491658796026	0.20833335217179336	0.006842846083790599	0.7459655568876862	0.21668783316836515
0.22222223531702207	0.7500000371809004	0.15254238642204554	0.1250000012743757	0.006842846083790599	0.7459655568876862	0.21668783316836515
0.13888889982177605	0.41666668350222846	0.06779661346678137	0.08333333906964199	0.006842846083790599	0.7459655568876862	0.21668783316836515
0.22222223630499363	0.7500000034632495	0.10169492376050887	0.04166666858203559	0.006842846083790599	0.7459655568876862	0.21668783316836515
0.0833333403505119	0.5000000182161031	0.06779661521730986	0.04166666766050241	0.006842846083790599	0.7459655568876862	0.21668783316836515
0.27777779536797503	0.7083334017420501	0.08474576848074501	0.0416666695003509	0.006842846083790599	0.7459655568876862	0.21668783316836515
0.19444445461912885	0.5416666826664228	0.06779661090489714	0.04166666806359654	0.006842846083790599	0.7459655568876862	0.21668783316836515
0.7500000621874812	0.500000005653074	0.6271186544257447	0.5416667193020731	0.7808952032748321	0.3960418273788264	0.21668783316836515
0.5833333612345535	0.5000000003082694	0.593220382671341	0.5833333477022249	0.7808952032748321	0.3960418273788264	0.21668783316836515
0.7222222507275575	0.4583333436872741	0.6610169602101481	0.5833333658771276	0.9102099209729314	0.3960418273788264	0.21668783316836515
0.33333335031730443	0.12500000109789117	0.508474603116068	0.5000000099732588	0.9102099209729314	0.3960418273788264	0.21668783316836515
0.611111159406179	0.33333335486714316	0.610169516364611	0.583333391018255	0.7808952032748321	0.3960418273788264	0.21668783316836515
0.38888892455876034	0.33333333556808387	0.5932203682570418	0.5000000318068075	0.7808952032748321	0.3960418273788264	0.21668783316836515
0.5555555726086079	0.5416667023101449	0.6271186893816808	0.625000008613116	0.7808952032748321	0.3960418273788264	0.21668783316836515
0.16666667451253644	0.16666667449281525	0.3898305307997243	0.37500002028226487	0.6730871005648834	0.3960418273788264	0.21668783316836515
0.6388889431888994	0.3750000082338971	0.6101695451553838	0.5000000384031368	0.6730871005648834	0.3960418273788264	0.21668783316836515
0.2500000148171164	0.29166667534618107	0.49152546642689504	0.5416667028706104	0.6730871005648834	0.3960418273788264	0.21668783316836515
0.1944444492641197	7.357379211353366e-08	0.4237288367764487	0.37500003681235927	0.7808952032748321	0.3960418273788264	0.21668783316836515
0.44444446904893004	0.4166666967518197	0.5423729014898281	0.5833333794880798	0.7808952032748321	0.3960418273788264	0.21668783316836515
0.47222226323722666	0.08333333838106954	0.5084745907859478	0.37500000359407687	0.9102099209729314	0.3960418273788264	0.21668783316836515
0.5000000055995195	0.3750000344776677	0.6271186708488148	0.5416666680615437	0.7808952032748321	0.3960418273788264	0.21668783316836515
0.3611111123948329	0.37500003106151153	0.4406779990175837	0.5000000248354338	0.7808952032748321	0.3960418273788264	0.21668783316836515
0.6666667266580695	0.45833335612444037	0.5762712427648393	0.5416666791126767	0.7808952032748321	0.3960418273788264	0.21668783316836515
0.3611111232835107	0.4166666748868508	0.5932203425372224	0.5833333904839715	0.6730871005648834	0.3960418273788264	0.21668783316836515
0.41666669753855085	0.2916666945628443	0.5254237686140023	0.37500001596768917	0.7808952032748321	0.3960418273788264	0.21668783316836515
0.5277778064624228	0.08333333506711246	0.5932203692688733	0.5833333880057897	0.7808952032748321	0.3960418273788264	0.21668783316836515
0.36111111835687204	0.20833333869526222	0.4915254689704446	0.4166666802965967	0.7808952032748321	0.3960418273788264	0.21668783316836515
0.4444444548447405	0.5000000196877677	0.6440678468614339	0.7083333703808325	0.7808952032748321	0.3960418273788264	0.21668783316836515
0.5000000437576013	0.33333334403686865	0.5084745861747131	0.5000000496276945	0.7808952032748321	0.3960418273788264	0.21668783316836515
0.5555555654733187	0.2083333414617914	0.6610170073416276	0.5833333341279742	0.7808952032748321	0.3960418273788264	0.21668783316836515
0.5000000100899465	0.33333335547206033	0.6271187031505338	0.45833335599341785	0.7808952032748321	0.3960418273788264	0.21668783316836515
0.5833333786796343	0.37500000365572717	0.5593220396178792	0.5000000235407447	0.7808952032748321	0.3960418273788264	0.21668783316836515
0.6388889325940321	0.41666669760243125	0.5762712107615696	0.5416666901756311	0.7808952032748321	0.3960418273788264	0.21668783316836515
0.6944444616048397	0.3333333442664	0.6440678407524429	0.5416666838469796	0.7808952032748321	0.3960418273788264	0.21668783316836515
0.6666667115220384	0.41666666788742707	0.6779661519268091	0.6666667032246701	0.7808952032748321	0.3960418273788264	0.21668783316836515
0.4722222531219787	0.37500003026198525	0.5932203726190007	0.5833333474597932	0.7808952032748321	0.3960418273788264	0.21668783316836515
0.38888891244416235	0.25000000550824913	0.42372882060179223	0.37500001166931507	0.7808952032748321	0.3960418273788264	0.21668783316836515
0.33333333931534354	0.16666666877995082	0.4745763170904221	0.4166666752004435	0.7808952032748321	0.3960418273788264	0.21668783316836515
0.33333336075521924	0.16666667213034714	0.45762712721017373	0.3750000119920124	0.7808952032748321	0.3960418273788264	0.21668783316836515
0.4166666757331581	0.29166668033934473	0.4915254647593347	0.4583333456569714	0.7808952032748321	0.3960418273788264	0.21668783316836515
0.47222225758630565	0.29166668088649844	0.6949153205778861	0.6250000161364538	0.7808952032748321	0.3960418273788264	0.21668783316836515
0.30555556477876217	0.41666667473536334	0.5932203682087562	0.5833333779468629	0.7808952032748321	0.3960418273788264	0.21668783316836515
0.47222225706727594	0.5833333729375166	0.5932203913305518	0.6250000517345009	0.7808952032748321	0.3960418273788264	0.21668783316836515
0.6666666980059054	0.45833334326723735	0.6271186927686786	0.5833333639587077	0.7808952032748321	0.3960418273788264	0.21668783316836515
0.5555555714774029	0.12500000373952258	0.5762712392732945	0.500000014250717	0.7808952032748321	0.3960418273788264	0.21668783316836515
0.361111126859822	0.4166666681667507	0.5254237610053909	0.5000000480601103	0.483762349717216	0.3960418273788264	0.21668783316836515
0.33333333677739474	0.20833334765456107	0.5084746085088052	0.5000000227092216	0.483762349717216	0.3960418273788264	0.21668783316836515
0.33333334122633596	0.25000001318762144	0.5762712076580025	0.4583333730594221	0.483762349717216	0.3960418273788264	0.21668783316836515
0.5000000447376534	0.41666669344179774	0.6101695253629918	0.5416667127707886	0.7808952032748321	0.3960418273788264	0.21668783316836515
0.4166667028584276	0.2500000216223323	0.5084746121320972	0.45833334226724837	0.7808952032748321	0.3960418273788264	0.21668783316836515
0.19444445644130373	0.12500000979630344	0.3898305324042448	0.3750000132850324	0.7808952032748321	0.3960418273788264	0.21668783316836515
0.36111113118783705	0.29166667589759904	0.5423729246308407	0.5000000335588757	0.7808952032748321	0.3960418273788264	0.21668783316836515
0.38888889447895864	0.41666670102447	0.5423729042482263	0.4583333386114666	0.7808952032748321	0.3960418273788264	0.21668783316836515
0.3888889260164971	0.37500001481704115	0.5423728921529405	0.5000000175702275	0.7808952032748321	0.3960418273788264	0.21668783316836515
0.5277777988955477	0.3750000155712372	0.5593220537580851	0.5000000247953378	0.483762349717216	0.3960418273788264	0.21668783316836515
0.22222223651973855	0.20833333809768512	0.338983056124734	0.4166666923698172	0.7808952032748321	0.3960418273788264	0.21668783316836515
0.38888890180523145	0.33333333391342257	0.5254237589676626	0.5000000466757227	0.7808952032748321	0.3960418273788264	0.21668783316836515
0.5555555676946199	0.5416666956251739	0.8474576532654426	1.0000000422953077	0.7808952032748321	0.7459655568876862	0.8544861614477054
0.4166666760354045	0.29166667274527697	0.6949152571041943	0.750000071603698	0.7808952032748321	0.7459655568876862	0.8544861614477054
0.7777778046234582	0.4166666945107677	0.8305085011340511	0.8333333680703585	0.7808952032748321	0.7459655568876862	0.8544861614477054
0.5555555564866871	0.3750000274686943	0.7796610913555603	0.7083333868231452	0.7808952032748321	0.7459655568876862	0.8544861614477054
0.6111111362353039	0.4166666883684618	0.8135593553607621	0.875000048779248	0.7808952032748321	0.7459655568876862	0.8544861614477054
0.916666694849885	0.41666668788879113	0.9491525823884822	0.8333333775182177	0.7808952032748321	0.7459655568876862	0.8544861614477054
0.16666667773221355	0.20833334622843258	0.5932203518848419	0.6666666753344762	0.7808952032748321	0.7459655568876862	0.8544861614477054
0.8333333644623626	0.37500002084101747	0.8983051141716121	0.7083333889520428	0.7808952032748321	0.7459655568876862	0.8544861614477054
0.6666666668063046	0.20833333490995293	0.8135593684369095	0.7083333984306351	0.7808952032748321	0.7459655568876862	0.8544861614477054
0.8055556341991804	0.6666667188092862	0.8644067946430043	1.0000000110522327	0.7808952032748321	0.7459655568876862	0.8544861614477054
0.6111111414853645	0.5000000010526069	0.6949153060870198	0.7916666977021714	0.7808952032748321	0.4845897093010062	0.8544861614477054
0.5833333366216518	0.2916666849306078	0.728813595700792	0.7500000522030703	0.7808952032748321	0.7459655568876862	0.8544861614477054
0.6944445101732862	0.4166666996791839	0.7627119007023838	0.833333391921778	0.7808952032748321	0.7459655568876862	0.8544861614477054
0.3888889091383626	0.20833334713142485	0.6779661115182706	0.7916667424467735	0.7808952032748321	0.7459655568876862	0.8544861614477054
0.4166667065878623	0.3333333653980604	0.6949152546954687	0.9583334057520319	0.7808952032748321	0.7459655568876862	0.8544861614477054
0.5833333481396771	0.5000000099185343	0.7288135901556734	0.9166666948514183	0.7808952032748321	0.7459655568876862	0.8544861614477054
0.6111111284771585	0.41666667965504933	0.7627118673156936	0.7083333853599451	0.7808952032748321	0.7459655568876862	0.8544861614477054
0.9444444554247081	0.7500000627866819	0.9661017719956744	0.8750000834311975	0.7808952032748321	0.7459655568876862	0.8544861614477054
0.9444444542172424	0.2500000145504425	1.000000081985544	0.9166667040932007	0.7808952032748321	0.7459655568876862	0.8544861614477054
0.47222222658205815	0.08333333753263615	0.6779661288155928	0.5833333592184686	0.7808952032748321	0.7459655568876862	0.8544861614477054
0.7222222804166812	0.5000000069464814	0.7966102152013669	0.9166666990762236	0.7808952032748321	0.7459655568876862	0.8544861614477054
0.36111113787195953	0.333333336992398	0.6610169504589193	0.791666711081693	0.7808952032748321	0.7459655568876862	0.8544861614477054
0.9444445344316037	0.33333333458756514	0.9661017427630176	0.7916667185415234	0.7808952032748321	0.7459655568876862	0.8544861614477054
0.5555556010318734	0.2916666893709173	0.6610170016373094	0.7083333621396859	0.7808952032748321	0.7459655568876862	0.8544861614477054
0.6666667272043099	0.5416666889618721	0.7966102388469913	0.8333334093517437	0.7808952032748321	0.7459655568876862	0.8544861614477054
0.8055555572169923	0.5000000030924016	0.8474576394344827	0.7083333432998152	0.2702079533563514	0.7459655568876862	0.8544861614477054
0.5277777971966817	0.3333333426608181	0.6440678103210588	0.7083333398494724	0.7808952032748321	0.7459655568876862	0.8544861614477054
0.5000000250716959	0.41666667927326034	0.6610169739805701	0.7083333611258478	0.7808952032748321	0.7459655568876862	0.8544861614477054
0.5833333646713043	0.33333335177264006	0.7796610645215769	0.8333333375806176	0.7808952032748321	0.7459655568876862	0.8544861614477054
0.8055556092498577	0.4166666968750677	0.8135593334185095	0.6250000596838494	0.7808952032748321	0.7459655568876862	0.8544861614477054
0.861111183989935	0.33333334509493084	0.8644067883119125	0.7500000442698391	0.7808952032748321	0.7459655568876862	0.8544861614477054
1.0000000183328028	0.7500000479202695	0.9152542927717731	0.7916667314682377	0.7808952032748321	0.7459655568876862	0.8452873586552421
0.5833333877109416	0.3333333577867337	0.7796610781738318	0.875000067669828	0.7808952032748321	0.7459655568876862	0.8544861614477054
0.5555555967399503	0.33333333570407114	0.6949152708652446	0.5833333643851347	0.6977958129308894	0.7459655568876862	0.8544861614477054
0.5000000345691309	0.2500000007666204	0.7796610792266953	0.5416666819459687	0.6977958129308894	0.7459655568876862	0.8544861614477054
0.9444444951698145	0.4166666798311006	0.8644068245593872	0.9166667417460099	0.6977958129308894	0.7459655568876862	0.8544861614477054
0.5555556010725343	0.583333360371302	0.7796610211282419	0.9583334183998722	0.7406171252379162	0.7459655568876862	0.8544861614477054
0.583333384729896	0.45833333921372676	0.7627119289250658	0.7083333948842971	0.7406171252379162	0.4845897093010062	0.8544861614477054
0.4722222375036149	0.4166666860044987	0.6440678476216187	0.7083333868134666	0.7406171252379162	0.4845897093010062	0.8544861614477054
0.7222222467725512	0.4583333369396235	0.7457627689088527	0.8333333480663628	0.6977958129308894	0.7459655568876862	0.8544861614477054
0.6666666678728999	0.45833337738868596	0.77966106040424	0.9583333847233115	0.7808952032748321	0.7459655568876862	0.8544861614477054
0.7222222813363867	0.45833337214734515	0.694915323392108	0.916666727162288	0.7808952032748321	0.7459655568876862	0.8544861614477054
0.4166666700652428	0.29166669032568643	0.694915307995208	0.7500000108679532	0.7808952032748321	0.7459655568876862	0.8544861614477054
0.694444496619245	0.5000000228846628	0.8305084944323924	0.9166666738831398	0.9102099209729314	0.7459655568876862	0.8544861614477054
0.6666666699846023	0.5416667000894574	0.7966102457777059	1.0000000204242665	0.7808952032748321	0.7459655568876862	0.8544861614477054
0.6666666841751522	0.4166666953662502	0.7118644347963908	0.9166666969476216	0.7808952032748321	0.7459655568876862	0.8544861614477054
0.5555555705320298	0.20833334089933728	0.6779661215774893	0.7500000188133591	0.7808952032748321	0.7459655568876862	0.8544861614477054
0.6111111595306471	0.41666668843205706	0.7118644219191264	0.7916666994114528	0.7808952032748321	0.7459655568876862	0.8544861614477054
0.5277778239045022	0.5833333827746915	0.7457627818076712	0.9166667256746402	0.7808952032748321	0.7459655568876862	0.8544861614477054
0.4444444697282558	0.41666668109077937	0.6949153008525363	0.7083333959597701	0.7808952032748321	0.7459655568876862	0.8544861614477054
